%TF.GenerationSoftware,KiCad,Pcbnew,(5.1.10)-1*%
%TF.CreationDate,2021-08-22T18:56:45-04:00*%
%TF.ProjectId,EngineeringSupportPlatform,456e6769-6e65-4657-9269-6e6753757070,rev?*%
%TF.SameCoordinates,Original*%
%TF.FileFunction,Soldermask,Top*%
%TF.FilePolarity,Negative*%
%FSLAX46Y46*%
G04 Gerber Fmt 4.6, Leading zero omitted, Abs format (unit mm)*
G04 Created by KiCad (PCBNEW (5.1.10)-1) date 2021-08-22 18:56:45*
%MOMM*%
%LPD*%
G01*
G04 APERTURE LIST*
%ADD10O,2.700000X3.300000*%
%ADD11C,2.020000*%
%ADD12C,1.346200*%
%ADD13R,0.650000X0.850000*%
%ADD14C,1.703200*%
%ADD15C,1.854200*%
%ADD16C,1.600200*%
%ADD17C,3.759200*%
%ADD18C,1.905000*%
%ADD19C,2.235200*%
%ADD20C,3.200000*%
%ADD21C,2.082800*%
G04 APERTURE END LIST*
D10*
%TO.C,J5*%
X283972000Y-181776000D03*
G36*
G01*
X282622000Y-177675999D02*
X282622000Y-174876001D01*
G75*
G02*
X282872001Y-174626000I250001J0D01*
G01*
X285071999Y-174626000D01*
G75*
G02*
X285322000Y-174876001I0J-250001D01*
G01*
X285322000Y-177675999D01*
G75*
G02*
X285071999Y-177926000I-250001J0D01*
G01*
X282872001Y-177926000D01*
G75*
G02*
X282622000Y-177675999I0J250001D01*
G01*
G37*
%TD*%
%TO.C,J4*%
X128270000Y-176110000D03*
G36*
G01*
X129620000Y-180210001D02*
X129620000Y-183009999D01*
G75*
G02*
X129369999Y-183260000I-250001J0D01*
G01*
X127170001Y-183260000D01*
G75*
G02*
X126920000Y-183009999I0J250001D01*
G01*
X126920000Y-180210001D01*
G75*
G02*
X127170001Y-179960000I250001J0D01*
G01*
X129369999Y-179960000D01*
G75*
G02*
X129620000Y-180210001I0J-250001D01*
G01*
G37*
%TD*%
D11*
%TO.C,TP7*%
X306070000Y-179578000D03*
%TD*%
%TO.C,TP6*%
X305816000Y-176022000D03*
%TD*%
%TO.C,TP5*%
X302514000Y-179578000D03*
%TD*%
%TO.C,TP4*%
X309372000Y-179578000D03*
%TD*%
%TO.C,TP3*%
X302514000Y-176022000D03*
%TD*%
%TO.C,TP1*%
X312674000Y-179578000D03*
%TD*%
%TO.C,TP2*%
X315976000Y-179578000D03*
%TD*%
D12*
%TO.C,U5*%
X103124000Y-85090000D03*
X103124000Y-87630000D03*
X103124000Y-90170000D03*
X103124000Y-92710000D03*
X98044000Y-92710000D03*
X98044000Y-90170000D03*
X98044000Y-87630000D03*
X98044000Y-85090000D03*
%TD*%
%TO.C,U4*%
X113030000Y-85090000D03*
X113030000Y-87630000D03*
X113030000Y-90170000D03*
X113030000Y-92710000D03*
X107950000Y-92710000D03*
X107950000Y-90170000D03*
X107950000Y-87630000D03*
X107950000Y-85090000D03*
%TD*%
%TO.C,U3*%
X93472000Y-85090000D03*
X93472000Y-87630000D03*
X93472000Y-90170000D03*
X93472000Y-92710000D03*
X88392000Y-92710000D03*
X88392000Y-90170000D03*
X88392000Y-87630000D03*
X88392000Y-85090000D03*
%TD*%
D13*
%TO.C,U13*%
X190634000Y-83349000D03*
X189784000Y-83349000D03*
X189784000Y-84799000D03*
X190634000Y-84799000D03*
%TD*%
%TO.C,U12*%
X237832000Y-85127000D03*
X236982000Y-85127000D03*
X236982000Y-86577000D03*
X237832000Y-86577000D03*
%TD*%
%TO.C,U11*%
X167303000Y-83095000D03*
X166453000Y-83095000D03*
X166453000Y-84545000D03*
X167303000Y-84545000D03*
%TD*%
%TO.C,U10*%
X223183000Y-84365000D03*
X222333000Y-84365000D03*
X222333000Y-85815000D03*
X223183000Y-85815000D03*
%TD*%
%TO.C,U9*%
X248329000Y-145833000D03*
X247479000Y-145833000D03*
X247479000Y-147283000D03*
X248329000Y-147283000D03*
%TD*%
%TO.C,U8*%
X203117000Y-84111000D03*
X202267000Y-84111000D03*
X202267000Y-85561000D03*
X203117000Y-85561000D03*
%TD*%
%TO.C,U7*%
X222929000Y-149897000D03*
X222079000Y-149897000D03*
X222079000Y-151347000D03*
X222929000Y-151347000D03*
%TD*%
%TO.C,R24*%
G36*
G01*
X192012000Y-87685600D02*
X190512000Y-87685600D01*
G75*
G02*
X190410400Y-87584000I0J101600D01*
G01*
X190410400Y-86284000D01*
G75*
G02*
X190512000Y-86182400I101600J0D01*
G01*
X192012000Y-86182400D01*
G75*
G02*
X192113600Y-86284000I0J-101600D01*
G01*
X192113600Y-87584000D01*
G75*
G02*
X192012000Y-87685600I-101600J0D01*
G01*
G37*
G36*
G01*
X192012000Y-89585600D02*
X190512000Y-89585600D01*
G75*
G02*
X190410400Y-89484000I0J101600D01*
G01*
X190410400Y-88184000D01*
G75*
G02*
X190512000Y-88082400I101600J0D01*
G01*
X192012000Y-88082400D01*
G75*
G02*
X192113600Y-88184000I0J-101600D01*
G01*
X192113600Y-89484000D01*
G75*
G02*
X192012000Y-89585600I-101600J0D01*
G01*
G37*
%TD*%
%TO.C,R23*%
G36*
G01*
X189726000Y-87685600D02*
X188226000Y-87685600D01*
G75*
G02*
X188124400Y-87584000I0J101600D01*
G01*
X188124400Y-86284000D01*
G75*
G02*
X188226000Y-86182400I101600J0D01*
G01*
X189726000Y-86182400D01*
G75*
G02*
X189827600Y-86284000I0J-101600D01*
G01*
X189827600Y-87584000D01*
G75*
G02*
X189726000Y-87685600I-101600J0D01*
G01*
G37*
G36*
G01*
X189726000Y-89585600D02*
X188226000Y-89585600D01*
G75*
G02*
X188124400Y-89484000I0J101600D01*
G01*
X188124400Y-88184000D01*
G75*
G02*
X188226000Y-88082400I101600J0D01*
G01*
X189726000Y-88082400D01*
G75*
G02*
X189827600Y-88184000I0J-101600D01*
G01*
X189827600Y-89484000D01*
G75*
G02*
X189726000Y-89585600I-101600J0D01*
G01*
G37*
%TD*%
%TO.C,R22*%
G36*
G01*
X239256000Y-89463600D02*
X237756000Y-89463600D01*
G75*
G02*
X237654400Y-89362000I0J101600D01*
G01*
X237654400Y-88062000D01*
G75*
G02*
X237756000Y-87960400I101600J0D01*
G01*
X239256000Y-87960400D01*
G75*
G02*
X239357600Y-88062000I0J-101600D01*
G01*
X239357600Y-89362000D01*
G75*
G02*
X239256000Y-89463600I-101600J0D01*
G01*
G37*
G36*
G01*
X239256000Y-91363600D02*
X237756000Y-91363600D01*
G75*
G02*
X237654400Y-91262000I0J101600D01*
G01*
X237654400Y-89962000D01*
G75*
G02*
X237756000Y-89860400I101600J0D01*
G01*
X239256000Y-89860400D01*
G75*
G02*
X239357600Y-89962000I0J-101600D01*
G01*
X239357600Y-91262000D01*
G75*
G02*
X239256000Y-91363600I-101600J0D01*
G01*
G37*
%TD*%
%TO.C,R21*%
G36*
G01*
X168644000Y-87431600D02*
X167144000Y-87431600D01*
G75*
G02*
X167042400Y-87330000I0J101600D01*
G01*
X167042400Y-86030000D01*
G75*
G02*
X167144000Y-85928400I101600J0D01*
G01*
X168644000Y-85928400D01*
G75*
G02*
X168745600Y-86030000I0J-101600D01*
G01*
X168745600Y-87330000D01*
G75*
G02*
X168644000Y-87431600I-101600J0D01*
G01*
G37*
G36*
G01*
X168644000Y-89331600D02*
X167144000Y-89331600D01*
G75*
G02*
X167042400Y-89230000I0J101600D01*
G01*
X167042400Y-87930000D01*
G75*
G02*
X167144000Y-87828400I101600J0D01*
G01*
X168644000Y-87828400D01*
G75*
G02*
X168745600Y-87930000I0J-101600D01*
G01*
X168745600Y-89230000D01*
G75*
G02*
X168644000Y-89331600I-101600J0D01*
G01*
G37*
%TD*%
%TO.C,R20*%
G36*
G01*
X236970000Y-89463600D02*
X235470000Y-89463600D01*
G75*
G02*
X235368400Y-89362000I0J101600D01*
G01*
X235368400Y-88062000D01*
G75*
G02*
X235470000Y-87960400I101600J0D01*
G01*
X236970000Y-87960400D01*
G75*
G02*
X237071600Y-88062000I0J-101600D01*
G01*
X237071600Y-89362000D01*
G75*
G02*
X236970000Y-89463600I-101600J0D01*
G01*
G37*
G36*
G01*
X236970000Y-91363600D02*
X235470000Y-91363600D01*
G75*
G02*
X235368400Y-91262000I0J101600D01*
G01*
X235368400Y-89962000D01*
G75*
G02*
X235470000Y-89860400I101600J0D01*
G01*
X236970000Y-89860400D01*
G75*
G02*
X237071600Y-89962000I0J-101600D01*
G01*
X237071600Y-91262000D01*
G75*
G02*
X236970000Y-91363600I-101600J0D01*
G01*
G37*
%TD*%
%TO.C,R19*%
G36*
G01*
X166612000Y-87431600D02*
X165112000Y-87431600D01*
G75*
G02*
X165010400Y-87330000I0J101600D01*
G01*
X165010400Y-86030000D01*
G75*
G02*
X165112000Y-85928400I101600J0D01*
G01*
X166612000Y-85928400D01*
G75*
G02*
X166713600Y-86030000I0J-101600D01*
G01*
X166713600Y-87330000D01*
G75*
G02*
X166612000Y-87431600I-101600J0D01*
G01*
G37*
G36*
G01*
X166612000Y-89331600D02*
X165112000Y-89331600D01*
G75*
G02*
X165010400Y-89230000I0J101600D01*
G01*
X165010400Y-87930000D01*
G75*
G02*
X165112000Y-87828400I101600J0D01*
G01*
X166612000Y-87828400D01*
G75*
G02*
X166713600Y-87930000I0J-101600D01*
G01*
X166713600Y-89230000D01*
G75*
G02*
X166612000Y-89331600I-101600J0D01*
G01*
G37*
%TD*%
%TO.C,R18*%
G36*
G01*
X224524000Y-88701600D02*
X223024000Y-88701600D01*
G75*
G02*
X222922400Y-88600000I0J101600D01*
G01*
X222922400Y-87300000D01*
G75*
G02*
X223024000Y-87198400I101600J0D01*
G01*
X224524000Y-87198400D01*
G75*
G02*
X224625600Y-87300000I0J-101600D01*
G01*
X224625600Y-88600000D01*
G75*
G02*
X224524000Y-88701600I-101600J0D01*
G01*
G37*
G36*
G01*
X224524000Y-90601600D02*
X223024000Y-90601600D01*
G75*
G02*
X222922400Y-90500000I0J101600D01*
G01*
X222922400Y-89200000D01*
G75*
G02*
X223024000Y-89098400I101600J0D01*
G01*
X224524000Y-89098400D01*
G75*
G02*
X224625600Y-89200000I0J-101600D01*
G01*
X224625600Y-90500000D01*
G75*
G02*
X224524000Y-90601600I-101600J0D01*
G01*
G37*
%TD*%
%TO.C,R17*%
G36*
G01*
X249670000Y-150169600D02*
X248170000Y-150169600D01*
G75*
G02*
X248068400Y-150068000I0J101600D01*
G01*
X248068400Y-148768000D01*
G75*
G02*
X248170000Y-148666400I101600J0D01*
G01*
X249670000Y-148666400D01*
G75*
G02*
X249771600Y-148768000I0J-101600D01*
G01*
X249771600Y-150068000D01*
G75*
G02*
X249670000Y-150169600I-101600J0D01*
G01*
G37*
G36*
G01*
X249670000Y-152069600D02*
X248170000Y-152069600D01*
G75*
G02*
X248068400Y-151968000I0J101600D01*
G01*
X248068400Y-150668000D01*
G75*
G02*
X248170000Y-150566400I101600J0D01*
G01*
X249670000Y-150566400D01*
G75*
G02*
X249771600Y-150668000I0J-101600D01*
G01*
X249771600Y-151968000D01*
G75*
G02*
X249670000Y-152069600I-101600J0D01*
G01*
G37*
%TD*%
%TO.C,R16*%
G36*
G01*
X222238000Y-88701600D02*
X220738000Y-88701600D01*
G75*
G02*
X220636400Y-88600000I0J101600D01*
G01*
X220636400Y-87300000D01*
G75*
G02*
X220738000Y-87198400I101600J0D01*
G01*
X222238000Y-87198400D01*
G75*
G02*
X222339600Y-87300000I0J-101600D01*
G01*
X222339600Y-88600000D01*
G75*
G02*
X222238000Y-88701600I-101600J0D01*
G01*
G37*
G36*
G01*
X222238000Y-90601600D02*
X220738000Y-90601600D01*
G75*
G02*
X220636400Y-90500000I0J101600D01*
G01*
X220636400Y-89200000D01*
G75*
G02*
X220738000Y-89098400I101600J0D01*
G01*
X222238000Y-89098400D01*
G75*
G02*
X222339600Y-89200000I0J-101600D01*
G01*
X222339600Y-90500000D01*
G75*
G02*
X222238000Y-90601600I-101600J0D01*
G01*
G37*
%TD*%
%TO.C,R15*%
G36*
G01*
X247638000Y-150169600D02*
X246138000Y-150169600D01*
G75*
G02*
X246036400Y-150068000I0J101600D01*
G01*
X246036400Y-148768000D01*
G75*
G02*
X246138000Y-148666400I101600J0D01*
G01*
X247638000Y-148666400D01*
G75*
G02*
X247739600Y-148768000I0J-101600D01*
G01*
X247739600Y-150068000D01*
G75*
G02*
X247638000Y-150169600I-101600J0D01*
G01*
G37*
G36*
G01*
X247638000Y-152069600D02*
X246138000Y-152069600D01*
G75*
G02*
X246036400Y-151968000I0J101600D01*
G01*
X246036400Y-150668000D01*
G75*
G02*
X246138000Y-150566400I101600J0D01*
G01*
X247638000Y-150566400D01*
G75*
G02*
X247739600Y-150668000I0J-101600D01*
G01*
X247739600Y-151968000D01*
G75*
G02*
X247638000Y-152069600I-101600J0D01*
G01*
G37*
%TD*%
%TO.C,R14*%
G36*
G01*
X204458000Y-88381600D02*
X202958000Y-88381600D01*
G75*
G02*
X202856400Y-88280000I0J101600D01*
G01*
X202856400Y-86980000D01*
G75*
G02*
X202958000Y-86878400I101600J0D01*
G01*
X204458000Y-86878400D01*
G75*
G02*
X204559600Y-86980000I0J-101600D01*
G01*
X204559600Y-88280000D01*
G75*
G02*
X204458000Y-88381600I-101600J0D01*
G01*
G37*
G36*
G01*
X204458000Y-90281600D02*
X202958000Y-90281600D01*
G75*
G02*
X202856400Y-90180000I0J101600D01*
G01*
X202856400Y-88880000D01*
G75*
G02*
X202958000Y-88778400I101600J0D01*
G01*
X204458000Y-88778400D01*
G75*
G02*
X204559600Y-88880000I0J-101600D01*
G01*
X204559600Y-90180000D01*
G75*
G02*
X204458000Y-90281600I-101600J0D01*
G01*
G37*
%TD*%
%TO.C,R13*%
G36*
G01*
X224270000Y-154233600D02*
X222770000Y-154233600D01*
G75*
G02*
X222668400Y-154132000I0J101600D01*
G01*
X222668400Y-152832000D01*
G75*
G02*
X222770000Y-152730400I101600J0D01*
G01*
X224270000Y-152730400D01*
G75*
G02*
X224371600Y-152832000I0J-101600D01*
G01*
X224371600Y-154132000D01*
G75*
G02*
X224270000Y-154233600I-101600J0D01*
G01*
G37*
G36*
G01*
X224270000Y-156133600D02*
X222770000Y-156133600D01*
G75*
G02*
X222668400Y-156032000I0J101600D01*
G01*
X222668400Y-154732000D01*
G75*
G02*
X222770000Y-154630400I101600J0D01*
G01*
X224270000Y-154630400D01*
G75*
G02*
X224371600Y-154732000I0J-101600D01*
G01*
X224371600Y-156032000D01*
G75*
G02*
X224270000Y-156133600I-101600J0D01*
G01*
G37*
%TD*%
%TO.C,R12*%
G36*
G01*
X202426000Y-88381600D02*
X200926000Y-88381600D01*
G75*
G02*
X200824400Y-88280000I0J101600D01*
G01*
X200824400Y-86980000D01*
G75*
G02*
X200926000Y-86878400I101600J0D01*
G01*
X202426000Y-86878400D01*
G75*
G02*
X202527600Y-86980000I0J-101600D01*
G01*
X202527600Y-88280000D01*
G75*
G02*
X202426000Y-88381600I-101600J0D01*
G01*
G37*
G36*
G01*
X202426000Y-90281600D02*
X200926000Y-90281600D01*
G75*
G02*
X200824400Y-90180000I0J101600D01*
G01*
X200824400Y-88880000D01*
G75*
G02*
X200926000Y-88778400I101600J0D01*
G01*
X202426000Y-88778400D01*
G75*
G02*
X202527600Y-88880000I0J-101600D01*
G01*
X202527600Y-90180000D01*
G75*
G02*
X202426000Y-90281600I-101600J0D01*
G01*
G37*
%TD*%
%TO.C,R10*%
G36*
G01*
X222238000Y-154233600D02*
X220738000Y-154233600D01*
G75*
G02*
X220636400Y-154132000I0J101600D01*
G01*
X220636400Y-152832000D01*
G75*
G02*
X220738000Y-152730400I101600J0D01*
G01*
X222238000Y-152730400D01*
G75*
G02*
X222339600Y-152832000I0J-101600D01*
G01*
X222339600Y-154132000D01*
G75*
G02*
X222238000Y-154233600I-101600J0D01*
G01*
G37*
G36*
G01*
X222238000Y-156133600D02*
X220738000Y-156133600D01*
G75*
G02*
X220636400Y-156032000I0J101600D01*
G01*
X220636400Y-154732000D01*
G75*
G02*
X220738000Y-154630400I101600J0D01*
G01*
X222238000Y-154630400D01*
G75*
G02*
X222339600Y-154732000I0J-101600D01*
G01*
X222339600Y-156032000D01*
G75*
G02*
X222238000Y-156133600I-101600J0D01*
G01*
G37*
%TD*%
%TO.C,R11*%
G36*
G01*
X255512000Y-89717600D02*
X254012000Y-89717600D01*
G75*
G02*
X253910400Y-89616000I0J101600D01*
G01*
X253910400Y-88316000D01*
G75*
G02*
X254012000Y-88214400I101600J0D01*
G01*
X255512000Y-88214400D01*
G75*
G02*
X255613600Y-88316000I0J-101600D01*
G01*
X255613600Y-89616000D01*
G75*
G02*
X255512000Y-89717600I-101600J0D01*
G01*
G37*
G36*
G01*
X255512000Y-91617600D02*
X254012000Y-91617600D01*
G75*
G02*
X253910400Y-91516000I0J101600D01*
G01*
X253910400Y-90216000D01*
G75*
G02*
X254012000Y-90114400I101600J0D01*
G01*
X255512000Y-90114400D01*
G75*
G02*
X255613600Y-90216000I0J-101600D01*
G01*
X255613600Y-91516000D01*
G75*
G02*
X255512000Y-91617600I-101600J0D01*
G01*
G37*
%TD*%
%TO.C,R9*%
G36*
G01*
X253480000Y-89717600D02*
X251980000Y-89717600D01*
G75*
G02*
X251878400Y-89616000I0J101600D01*
G01*
X251878400Y-88316000D01*
G75*
G02*
X251980000Y-88214400I101600J0D01*
G01*
X253480000Y-88214400D01*
G75*
G02*
X253581600Y-88316000I0J-101600D01*
G01*
X253581600Y-89616000D01*
G75*
G02*
X253480000Y-89717600I-101600J0D01*
G01*
G37*
G36*
G01*
X253480000Y-91617600D02*
X251980000Y-91617600D01*
G75*
G02*
X251878400Y-91516000I0J101600D01*
G01*
X251878400Y-90216000D01*
G75*
G02*
X251980000Y-90114400I101600J0D01*
G01*
X253480000Y-90114400D01*
G75*
G02*
X253581600Y-90216000I0J-101600D01*
G01*
X253581600Y-91516000D01*
G75*
G02*
X253480000Y-91617600I-101600J0D01*
G01*
G37*
%TD*%
%TO.C,U6*%
X254171000Y-85635000D03*
X253321000Y-85635000D03*
X253321000Y-87085000D03*
X254171000Y-87085000D03*
%TD*%
D14*
%TO.C,X8*%
X242062000Y-97282000D03*
%TD*%
D15*
%TO.C,J9*%
X278142700Y-87985600D03*
X266153900Y-181965600D03*
D16*
X276161500Y-87960200D03*
X276161500Y-89966800D03*
X276161500Y-91973400D03*
X276161500Y-93954600D03*
X276161500Y-95961200D03*
X276161500Y-97967800D03*
X276161500Y-99974400D03*
X276161500Y-101955600D03*
X276161500Y-103962200D03*
X276161500Y-105968800D03*
X276161500Y-107975400D03*
X276161500Y-109956600D03*
X276161500Y-111963200D03*
X276161500Y-113969800D03*
X276161500Y-115976400D03*
X276161500Y-117957600D03*
X276161500Y-119964200D03*
X276161500Y-121970800D03*
X276161500Y-123977400D03*
X276161500Y-125958600D03*
X276161500Y-127965200D03*
X276161500Y-129971800D03*
X276161500Y-131953000D03*
X276161500Y-133959600D03*
X276161500Y-135966200D03*
X276161500Y-137972800D03*
X276161500Y-139954000D03*
X276161500Y-141960600D03*
X276161500Y-143967200D03*
X276161500Y-145973800D03*
X276161500Y-147955000D03*
X276161500Y-149961600D03*
X276161500Y-151968200D03*
X276161500Y-153974800D03*
X276161500Y-155956000D03*
X276161500Y-157962600D03*
X276161500Y-159969200D03*
X276161500Y-161975800D03*
X276161500Y-163957000D03*
X276161500Y-165963600D03*
X276161500Y-167970200D03*
X276161500Y-169976800D03*
X276161500Y-171958000D03*
X276161500Y-173964600D03*
X276161500Y-175971200D03*
X276161500Y-177977800D03*
X276161500Y-179959000D03*
X276161500Y-181965600D03*
X274154900Y-87960200D03*
X274154900Y-89966800D03*
X274154900Y-91973400D03*
X274154900Y-93954600D03*
X274154900Y-95961200D03*
X274154900Y-97967800D03*
X274154900Y-99974400D03*
X274154900Y-101955600D03*
X274154900Y-103962200D03*
X274154900Y-105968800D03*
X274154900Y-107975400D03*
X274154900Y-109956600D03*
X274154900Y-111963200D03*
X274154900Y-113969800D03*
X274154900Y-115976400D03*
X274154900Y-117957600D03*
X274154900Y-119964200D03*
X274154900Y-121970800D03*
X274154900Y-123977400D03*
X274154900Y-125958600D03*
X274154900Y-127965200D03*
X274154900Y-129971800D03*
X274154900Y-131953000D03*
X274154900Y-133959600D03*
X274154900Y-135966200D03*
X274154900Y-137972800D03*
X274154900Y-139954000D03*
X274154900Y-141960600D03*
X274154900Y-143967200D03*
X274154900Y-145973800D03*
X274154900Y-147955000D03*
X274154900Y-149961600D03*
X274154900Y-151968200D03*
X274154900Y-153974800D03*
X274154900Y-155956000D03*
X274154900Y-157962600D03*
X274154900Y-159969200D03*
X274154900Y-161975800D03*
X274154900Y-163957000D03*
X274154900Y-165963600D03*
X274154900Y-167970200D03*
X274154900Y-169976800D03*
X274154900Y-171958000D03*
X274154900Y-173964600D03*
X274154900Y-175971200D03*
X274154900Y-177977800D03*
X274154900Y-179959000D03*
X274154900Y-181965600D03*
X272173700Y-87960200D03*
X272173700Y-89966800D03*
X272173700Y-91973400D03*
X272173700Y-93954600D03*
X272173700Y-95961200D03*
X272173700Y-97967800D03*
X272173700Y-99974400D03*
X272173700Y-101955600D03*
X272173700Y-103962200D03*
X272173700Y-105968800D03*
X272173700Y-107975400D03*
X272173700Y-109956600D03*
X272173700Y-111963200D03*
X272173700Y-113969800D03*
X272173700Y-115976400D03*
X272173700Y-117957600D03*
X272173700Y-119964200D03*
X272173700Y-121970800D03*
X272173700Y-123977400D03*
X272173700Y-125958600D03*
X272173700Y-127965200D03*
X272173700Y-129971800D03*
X272173700Y-131953000D03*
X272173700Y-133959600D03*
X272173700Y-135966200D03*
X272173700Y-137972800D03*
X272173700Y-139954000D03*
X272173700Y-141960600D03*
X272173700Y-143967200D03*
X272173700Y-145973800D03*
X272173700Y-147955000D03*
X272173700Y-149961600D03*
X272173700Y-151968200D03*
X272173700Y-153974800D03*
X272173700Y-155956000D03*
X272173700Y-157962600D03*
X272173700Y-159969200D03*
X272173700Y-161975800D03*
X272173700Y-163957000D03*
X272173700Y-165963600D03*
X272173700Y-167970200D03*
X272173700Y-169976800D03*
X272173700Y-171958000D03*
X272173700Y-173964600D03*
X272173700Y-175971200D03*
X272173700Y-177977800D03*
X272173700Y-179959000D03*
X272173700Y-181965600D03*
X270167100Y-87960200D03*
X270167100Y-89966800D03*
X270167100Y-91973400D03*
X270167100Y-93954600D03*
X270167100Y-95961200D03*
X270167100Y-97967800D03*
X270167100Y-99974400D03*
X270167100Y-101955600D03*
X270167100Y-103962200D03*
X270167100Y-105968800D03*
X270167100Y-107975400D03*
X270167100Y-109956600D03*
X270167100Y-111963200D03*
X270167100Y-113969800D03*
X270167100Y-115976400D03*
X270167100Y-117957600D03*
X270167100Y-119964200D03*
X270167100Y-121970800D03*
X270167100Y-123977400D03*
X270167100Y-125958600D03*
X270167100Y-127965200D03*
X270167100Y-129971800D03*
X270167100Y-131953000D03*
X270167100Y-133959600D03*
X270167100Y-135966200D03*
X270167100Y-137972800D03*
X270167100Y-139954000D03*
X270167100Y-141960600D03*
X270167100Y-143967200D03*
X270167100Y-145973800D03*
X270167100Y-147955000D03*
X270167100Y-149961600D03*
X270167100Y-151968200D03*
X270167100Y-153974800D03*
X270167100Y-155956000D03*
X270167100Y-157962600D03*
X270167100Y-159969200D03*
X270167100Y-161975800D03*
X270167100Y-163957000D03*
X270167100Y-165963600D03*
X270167100Y-167970200D03*
X270167100Y-169976800D03*
X270167100Y-171958000D03*
X270167100Y-173964600D03*
X270167100Y-175971200D03*
X270167100Y-177977800D03*
X270167100Y-179959000D03*
X270167100Y-181965600D03*
%TD*%
D17*
%TO.C,J11*%
X254520700Y-171881800D03*
X229527100Y-171881800D03*
X254520700Y-179882800D03*
X229527100Y-179882800D03*
D18*
X236486700Y-177038000D03*
X237858300Y-179882800D03*
X239255300Y-177038000D03*
X240652300Y-179882800D03*
X242023900Y-177038000D03*
X243395500Y-179882800D03*
X244792500Y-177038000D03*
X246189500Y-179882800D03*
X247561100Y-177038000D03*
X236486700Y-170281600D03*
X237858300Y-173126400D03*
X239255300Y-170281600D03*
X240652300Y-173126400D03*
X242023900Y-170281600D03*
X243395500Y-173126400D03*
X244792500Y-170281600D03*
X246189500Y-173126400D03*
X247561100Y-170281600D03*
%TD*%
D14*
%TO.C,X48*%
X130302000Y-65278000D03*
%TD*%
%TO.C,X91*%
X259080000Y-97282000D03*
%TD*%
%TO.C,X89*%
X209550000Y-86868000D03*
%TD*%
%TO.C,X88*%
X196088000Y-84582000D03*
%TD*%
%TO.C,X87*%
X196088000Y-87122000D03*
%TD*%
%TO.C,X86*%
X177038000Y-84582000D03*
%TD*%
%TO.C,X27*%
X177038000Y-87122000D03*
%TD*%
D17*
%TO.C,J15*%
X240601500Y-75971400D03*
X265595100Y-75971400D03*
X240601500Y-67970400D03*
X265595100Y-67970400D03*
D18*
X258635500Y-70815200D03*
X257263900Y-67970400D03*
X255866900Y-70815200D03*
X254469900Y-67970400D03*
X253098300Y-70815200D03*
X251726700Y-67970400D03*
X250329700Y-70815200D03*
X248932700Y-67970400D03*
X247561100Y-70815200D03*
X258635500Y-77571600D03*
X257263900Y-74726800D03*
X255866900Y-77571600D03*
X254469900Y-74726800D03*
X253098300Y-77571600D03*
X251726700Y-74726800D03*
X250329700Y-77571600D03*
X248932700Y-74726800D03*
X247561100Y-77571600D03*
%TD*%
D17*
%TO.C,J13*%
X207581500Y-75971400D03*
X232575100Y-75971400D03*
X207581500Y-67970400D03*
X232575100Y-67970400D03*
D18*
X225615500Y-70815200D03*
X224243900Y-67970400D03*
X222846900Y-70815200D03*
X221449900Y-67970400D03*
X220078300Y-70815200D03*
X218706700Y-67970400D03*
X217309700Y-70815200D03*
X215912700Y-67970400D03*
X214541100Y-70815200D03*
X225615500Y-77571600D03*
X224243900Y-74726800D03*
X222846900Y-77571600D03*
X221449900Y-74726800D03*
X220078300Y-77571600D03*
X218706700Y-74726800D03*
X217309700Y-77571600D03*
X215912700Y-74726800D03*
X214541100Y-77571600D03*
%TD*%
D17*
%TO.C,J10*%
X186537600Y-172034200D03*
X161544000Y-172034200D03*
X186537600Y-180035200D03*
X161544000Y-180035200D03*
D18*
X168503600Y-177190400D03*
X169875200Y-180035200D03*
X171272200Y-177190400D03*
X172669200Y-180035200D03*
X174040800Y-177190400D03*
X175412400Y-180035200D03*
X176809400Y-177190400D03*
X178206400Y-180035200D03*
X179578000Y-177190400D03*
X168503600Y-170434000D03*
X169875200Y-173278800D03*
X171272200Y-170434000D03*
X172669200Y-173278800D03*
X174040800Y-170434000D03*
X175412400Y-173278800D03*
X176809400Y-170434000D03*
X178206400Y-173278800D03*
X179578000Y-170434000D03*
%TD*%
D15*
%TO.C,J8*%
X148437600Y-88392000D03*
X136448800Y-182372000D03*
D16*
X146456400Y-88366600D03*
X146456400Y-90373200D03*
X146456400Y-92379800D03*
X146456400Y-94361000D03*
X146456400Y-96367600D03*
X146456400Y-98374200D03*
X146456400Y-100380800D03*
X146456400Y-102362000D03*
X146456400Y-104368600D03*
X146456400Y-106375200D03*
X146456400Y-108381800D03*
X146456400Y-110363000D03*
X146456400Y-112369600D03*
X146456400Y-114376200D03*
X146456400Y-116382800D03*
X146456400Y-118364000D03*
X146456400Y-120370600D03*
X146456400Y-122377200D03*
X146456400Y-124383800D03*
X146456400Y-126365000D03*
X146456400Y-128371600D03*
X146456400Y-130378200D03*
X146456400Y-132359400D03*
X146456400Y-134366000D03*
X146456400Y-136372600D03*
X146456400Y-138379200D03*
X146456400Y-140360400D03*
X146456400Y-142367000D03*
X146456400Y-144373600D03*
X146456400Y-146380200D03*
X146456400Y-148361400D03*
X146456400Y-150368000D03*
X146456400Y-152374600D03*
X146456400Y-154381200D03*
X146456400Y-156362400D03*
X146456400Y-158369000D03*
X146456400Y-160375600D03*
X146456400Y-162382200D03*
X146456400Y-164363400D03*
X146456400Y-166370000D03*
X146456400Y-168376600D03*
X146456400Y-170383200D03*
X146456400Y-172364400D03*
X146456400Y-174371000D03*
X146456400Y-176377600D03*
X146456400Y-178384200D03*
X146456400Y-180365400D03*
X146456400Y-182372000D03*
X144449800Y-88366600D03*
X144449800Y-90373200D03*
X144449800Y-92379800D03*
X144449800Y-94361000D03*
X144449800Y-96367600D03*
X144449800Y-98374200D03*
X144449800Y-100380800D03*
X144449800Y-102362000D03*
X144449800Y-104368600D03*
X144449800Y-106375200D03*
X144449800Y-108381800D03*
X144449800Y-110363000D03*
X144449800Y-112369600D03*
X144449800Y-114376200D03*
X144449800Y-116382800D03*
X144449800Y-118364000D03*
X144449800Y-120370600D03*
X144449800Y-122377200D03*
X144449800Y-124383800D03*
X144449800Y-126365000D03*
X144449800Y-128371600D03*
X144449800Y-130378200D03*
X144449800Y-132359400D03*
X144449800Y-134366000D03*
X144449800Y-136372600D03*
X144449800Y-138379200D03*
X144449800Y-140360400D03*
X144449800Y-142367000D03*
X144449800Y-144373600D03*
X144449800Y-146380200D03*
X144449800Y-148361400D03*
X144449800Y-150368000D03*
X144449800Y-152374600D03*
X144449800Y-154381200D03*
X144449800Y-156362400D03*
X144449800Y-158369000D03*
X144449800Y-160375600D03*
X144449800Y-162382200D03*
X144449800Y-164363400D03*
X144449800Y-166370000D03*
X144449800Y-168376600D03*
X144449800Y-170383200D03*
X144449800Y-172364400D03*
X144449800Y-174371000D03*
X144449800Y-176377600D03*
X144449800Y-178384200D03*
X144449800Y-180365400D03*
X144449800Y-182372000D03*
X142468600Y-88366600D03*
X142468600Y-90373200D03*
X142468600Y-92379800D03*
X142468600Y-94361000D03*
X142468600Y-96367600D03*
X142468600Y-98374200D03*
X142468600Y-100380800D03*
X142468600Y-102362000D03*
X142468600Y-104368600D03*
X142468600Y-106375200D03*
X142468600Y-108381800D03*
X142468600Y-110363000D03*
X142468600Y-112369600D03*
X142468600Y-114376200D03*
X142468600Y-116382800D03*
X142468600Y-118364000D03*
X142468600Y-120370600D03*
X142468600Y-122377200D03*
X142468600Y-124383800D03*
X142468600Y-126365000D03*
X142468600Y-128371600D03*
X142468600Y-130378200D03*
X142468600Y-132359400D03*
X142468600Y-134366000D03*
X142468600Y-136372600D03*
X142468600Y-138379200D03*
X142468600Y-140360400D03*
X142468600Y-142367000D03*
X142468600Y-144373600D03*
X142468600Y-146380200D03*
X142468600Y-148361400D03*
X142468600Y-150368000D03*
X142468600Y-152374600D03*
X142468600Y-154381200D03*
X142468600Y-156362400D03*
X142468600Y-158369000D03*
X142468600Y-160375600D03*
X142468600Y-162382200D03*
X142468600Y-164363400D03*
X142468600Y-166370000D03*
X142468600Y-168376600D03*
X142468600Y-170383200D03*
X142468600Y-172364400D03*
X142468600Y-174371000D03*
X142468600Y-176377600D03*
X142468600Y-178384200D03*
X142468600Y-180365400D03*
X142468600Y-182372000D03*
X140462000Y-88366600D03*
X140462000Y-90373200D03*
X140462000Y-92379800D03*
X140462000Y-94361000D03*
X140462000Y-96367600D03*
X140462000Y-98374200D03*
X140462000Y-100380800D03*
X140462000Y-102362000D03*
X140462000Y-104368600D03*
X140462000Y-106375200D03*
X140462000Y-108381800D03*
X140462000Y-110363000D03*
X140462000Y-112369600D03*
X140462000Y-114376200D03*
X140462000Y-116382800D03*
X140462000Y-118364000D03*
X140462000Y-120370600D03*
X140462000Y-122377200D03*
X140462000Y-124383800D03*
X140462000Y-126365000D03*
X140462000Y-128371600D03*
X140462000Y-130378200D03*
X140462000Y-132359400D03*
X140462000Y-134366000D03*
X140462000Y-136372600D03*
X140462000Y-138379200D03*
X140462000Y-140360400D03*
X140462000Y-142367000D03*
X140462000Y-144373600D03*
X140462000Y-146380200D03*
X140462000Y-148361400D03*
X140462000Y-150368000D03*
X140462000Y-152374600D03*
X140462000Y-154381200D03*
X140462000Y-156362400D03*
X140462000Y-158369000D03*
X140462000Y-160375600D03*
X140462000Y-162382200D03*
X140462000Y-164363400D03*
X140462000Y-166370000D03*
X140462000Y-168376600D03*
X140462000Y-170383200D03*
X140462000Y-172364400D03*
X140462000Y-174371000D03*
X140462000Y-176377600D03*
X140462000Y-178384200D03*
X140462000Y-180365400D03*
X140462000Y-182372000D03*
%TD*%
D14*
%TO.C,X19*%
X253492000Y-142494000D03*
%TD*%
%TO.C,X18*%
X253492000Y-145034000D03*
%TD*%
%TO.C,X16*%
X231140000Y-142494000D03*
%TD*%
%TO.C,X5*%
X231140000Y-145034000D03*
%TD*%
D17*
%TO.C,J12*%
X174561500Y-75971400D03*
X199555100Y-75971400D03*
X174561500Y-67970400D03*
X199555100Y-67970400D03*
D18*
X192595500Y-70815200D03*
X191223900Y-67970400D03*
X189826900Y-70815200D03*
X188429900Y-67970400D03*
X187058300Y-70815200D03*
X185686700Y-67970400D03*
X184289700Y-70815200D03*
X182892700Y-67970400D03*
X181521100Y-70815200D03*
X192595500Y-77571600D03*
X191223900Y-74726800D03*
X189826900Y-77571600D03*
X188429900Y-74726800D03*
X187058300Y-77571600D03*
X185686700Y-74726800D03*
X184289700Y-77571600D03*
X182892700Y-74726800D03*
X181521100Y-77571600D03*
%TD*%
%TO.C,C1*%
G36*
G01*
X92042400Y-122874000D02*
X92042400Y-121474000D01*
G75*
G02*
X92144000Y-121372400I101600J0D01*
G01*
X93244000Y-121372400D01*
G75*
G02*
X93345600Y-121474000I0J-101600D01*
G01*
X93345600Y-122874000D01*
G75*
G02*
X93244000Y-122975600I-101600J0D01*
G01*
X92144000Y-122975600D01*
G75*
G02*
X92042400Y-122874000I0J101600D01*
G01*
G37*
G36*
G01*
X90042400Y-122874000D02*
X90042400Y-121474000D01*
G75*
G02*
X90144000Y-121372400I101600J0D01*
G01*
X91244000Y-121372400D01*
G75*
G02*
X91345600Y-121474000I0J-101600D01*
G01*
X91345600Y-122874000D01*
G75*
G02*
X91244000Y-122975600I-101600J0D01*
G01*
X90144000Y-122975600D01*
G75*
G02*
X90042400Y-122874000I0J101600D01*
G01*
G37*
%TD*%
%TO.C,C2*%
G36*
G01*
X92042400Y-125668000D02*
X92042400Y-124268000D01*
G75*
G02*
X92144000Y-124166400I101600J0D01*
G01*
X93244000Y-124166400D01*
G75*
G02*
X93345600Y-124268000I0J-101600D01*
G01*
X93345600Y-125668000D01*
G75*
G02*
X93244000Y-125769600I-101600J0D01*
G01*
X92144000Y-125769600D01*
G75*
G02*
X92042400Y-125668000I0J101600D01*
G01*
G37*
G36*
G01*
X90042400Y-125668000D02*
X90042400Y-124268000D01*
G75*
G02*
X90144000Y-124166400I101600J0D01*
G01*
X91244000Y-124166400D01*
G75*
G02*
X91345600Y-124268000I0J-101600D01*
G01*
X91345600Y-125668000D01*
G75*
G02*
X91244000Y-125769600I-101600J0D01*
G01*
X90144000Y-125769600D01*
G75*
G02*
X90042400Y-125668000I0J101600D01*
G01*
G37*
%TD*%
%TO.C,C3*%
G36*
G01*
X95696000Y-112173600D02*
X94296000Y-112173600D01*
G75*
G02*
X94194400Y-112072000I0J101600D01*
G01*
X94194400Y-110972000D01*
G75*
G02*
X94296000Y-110870400I101600J0D01*
G01*
X95696000Y-110870400D01*
G75*
G02*
X95797600Y-110972000I0J-101600D01*
G01*
X95797600Y-112072000D01*
G75*
G02*
X95696000Y-112173600I-101600J0D01*
G01*
G37*
G36*
G01*
X95696000Y-114173600D02*
X94296000Y-114173600D01*
G75*
G02*
X94194400Y-114072000I0J101600D01*
G01*
X94194400Y-112972000D01*
G75*
G02*
X94296000Y-112870400I101600J0D01*
G01*
X95696000Y-112870400D01*
G75*
G02*
X95797600Y-112972000I0J-101600D01*
G01*
X95797600Y-114072000D01*
G75*
G02*
X95696000Y-114173600I-101600J0D01*
G01*
G37*
%TD*%
D17*
%TO.C,J14*%
X220827600Y-172034200D03*
X195834000Y-172034200D03*
X220827600Y-180035200D03*
X195834000Y-180035200D03*
D18*
X202793600Y-177190400D03*
X204165200Y-180035200D03*
X205562200Y-177190400D03*
X206959200Y-180035200D03*
X208330800Y-177190400D03*
X209702400Y-180035200D03*
X211099400Y-177190400D03*
X212496400Y-180035200D03*
X213868000Y-177190400D03*
X202793600Y-170434000D03*
X204165200Y-173278800D03*
X205562200Y-170434000D03*
X206959200Y-173278800D03*
X208330800Y-170434000D03*
X209702400Y-173278800D03*
X211099400Y-170434000D03*
X212496400Y-173278800D03*
X213868000Y-170434000D03*
%TD*%
%TO.C,R1*%
G36*
G01*
X104703600Y-120916000D02*
X104703600Y-122416000D01*
G75*
G02*
X104602000Y-122517600I-101600J0D01*
G01*
X103302000Y-122517600D01*
G75*
G02*
X103200400Y-122416000I0J101600D01*
G01*
X103200400Y-120916000D01*
G75*
G02*
X103302000Y-120814400I101600J0D01*
G01*
X104602000Y-120814400D01*
G75*
G02*
X104703600Y-120916000I0J-101600D01*
G01*
G37*
G36*
G01*
X106603600Y-120916000D02*
X106603600Y-122416000D01*
G75*
G02*
X106502000Y-122517600I-101600J0D01*
G01*
X105202000Y-122517600D01*
G75*
G02*
X105100400Y-122416000I0J101600D01*
G01*
X105100400Y-120916000D01*
G75*
G02*
X105202000Y-120814400I101600J0D01*
G01*
X106502000Y-120814400D01*
G75*
G02*
X106603600Y-120916000I0J-101600D01*
G01*
G37*
%TD*%
%TO.C,R2*%
G36*
G01*
X108513600Y-122440000D02*
X108513600Y-123940000D01*
G75*
G02*
X108412000Y-124041600I-101600J0D01*
G01*
X107112000Y-124041600D01*
G75*
G02*
X107010400Y-123940000I0J101600D01*
G01*
X107010400Y-122440000D01*
G75*
G02*
X107112000Y-122338400I101600J0D01*
G01*
X108412000Y-122338400D01*
G75*
G02*
X108513600Y-122440000I0J-101600D01*
G01*
G37*
G36*
G01*
X110413600Y-122440000D02*
X110413600Y-123940000D01*
G75*
G02*
X110312000Y-124041600I-101600J0D01*
G01*
X109012000Y-124041600D01*
G75*
G02*
X108910400Y-123940000I0J101600D01*
G01*
X108910400Y-122440000D01*
G75*
G02*
X109012000Y-122338400I101600J0D01*
G01*
X110312000Y-122338400D01*
G75*
G02*
X110413600Y-122440000I0J-101600D01*
G01*
G37*
%TD*%
%TO.C,R3*%
G36*
G01*
X104703600Y-123710000D02*
X104703600Y-125210000D01*
G75*
G02*
X104602000Y-125311600I-101600J0D01*
G01*
X103302000Y-125311600D01*
G75*
G02*
X103200400Y-125210000I0J101600D01*
G01*
X103200400Y-123710000D01*
G75*
G02*
X103302000Y-123608400I101600J0D01*
G01*
X104602000Y-123608400D01*
G75*
G02*
X104703600Y-123710000I0J-101600D01*
G01*
G37*
G36*
G01*
X106603600Y-123710000D02*
X106603600Y-125210000D01*
G75*
G02*
X106502000Y-125311600I-101600J0D01*
G01*
X105202000Y-125311600D01*
G75*
G02*
X105100400Y-125210000I0J101600D01*
G01*
X105100400Y-123710000D01*
G75*
G02*
X105202000Y-123608400I101600J0D01*
G01*
X106502000Y-123608400D01*
G75*
G02*
X106603600Y-123710000I0J-101600D01*
G01*
G37*
%TD*%
%TO.C,R4*%
G36*
G01*
X108513600Y-124980000D02*
X108513600Y-126480000D01*
G75*
G02*
X108412000Y-126581600I-101600J0D01*
G01*
X107112000Y-126581600D01*
G75*
G02*
X107010400Y-126480000I0J101600D01*
G01*
X107010400Y-124980000D01*
G75*
G02*
X107112000Y-124878400I101600J0D01*
G01*
X108412000Y-124878400D01*
G75*
G02*
X108513600Y-124980000I0J-101600D01*
G01*
G37*
G36*
G01*
X110413600Y-124980000D02*
X110413600Y-126480000D01*
G75*
G02*
X110312000Y-126581600I-101600J0D01*
G01*
X109012000Y-126581600D01*
G75*
G02*
X108910400Y-126480000I0J101600D01*
G01*
X108910400Y-124980000D01*
G75*
G02*
X109012000Y-124878400I101600J0D01*
G01*
X110312000Y-124878400D01*
G75*
G02*
X110413600Y-124980000I0J-101600D01*
G01*
G37*
%TD*%
%TO.C,T1*%
G36*
G01*
X112288000Y-124437900D02*
X114788000Y-124437900D01*
G75*
G02*
X114889600Y-124539500I0J-101600D01*
G01*
X114889600Y-126539500D01*
G75*
G02*
X114788000Y-126641100I-101600J0D01*
G01*
X112288000Y-126641100D01*
G75*
G02*
X112186400Y-126539500I0J101600D01*
G01*
X112186400Y-124539500D01*
G75*
G02*
X112288000Y-124437900I101600J0D01*
G01*
G37*
G36*
G01*
X112288000Y-128882900D02*
X114788000Y-128882900D01*
G75*
G02*
X114889600Y-128984500I0J-101600D01*
G01*
X114889600Y-130984500D01*
G75*
G02*
X114788000Y-131086100I-101600J0D01*
G01*
X112288000Y-131086100D01*
G75*
G02*
X112186400Y-130984500I0J101600D01*
G01*
X112186400Y-128984500D01*
G75*
G02*
X112288000Y-128882900I101600J0D01*
G01*
G37*
%TD*%
%TO.C,T2*%
G36*
G01*
X117114000Y-124437900D02*
X119614000Y-124437900D01*
G75*
G02*
X119715600Y-124539500I0J-101600D01*
G01*
X119715600Y-126539500D01*
G75*
G02*
X119614000Y-126641100I-101600J0D01*
G01*
X117114000Y-126641100D01*
G75*
G02*
X117012400Y-126539500I0J101600D01*
G01*
X117012400Y-124539500D01*
G75*
G02*
X117114000Y-124437900I101600J0D01*
G01*
G37*
G36*
G01*
X117114000Y-128882900D02*
X119614000Y-128882900D01*
G75*
G02*
X119715600Y-128984500I0J-101600D01*
G01*
X119715600Y-130984500D01*
G75*
G02*
X119614000Y-131086100I-101600J0D01*
G01*
X117114000Y-131086100D01*
G75*
G02*
X117012400Y-130984500I0J101600D01*
G01*
X117012400Y-128984500D01*
G75*
G02*
X117114000Y-128882900I101600J0D01*
G01*
G37*
%TD*%
%TO.C,T3*%
G36*
G01*
X121432000Y-124437900D02*
X123932000Y-124437900D01*
G75*
G02*
X124033600Y-124539500I0J-101600D01*
G01*
X124033600Y-126539500D01*
G75*
G02*
X123932000Y-126641100I-101600J0D01*
G01*
X121432000Y-126641100D01*
G75*
G02*
X121330400Y-126539500I0J101600D01*
G01*
X121330400Y-124539500D01*
G75*
G02*
X121432000Y-124437900I101600J0D01*
G01*
G37*
G36*
G01*
X121432000Y-128882900D02*
X123932000Y-128882900D01*
G75*
G02*
X124033600Y-128984500I0J-101600D01*
G01*
X124033600Y-130984500D01*
G75*
G02*
X123932000Y-131086100I-101600J0D01*
G01*
X121432000Y-131086100D01*
G75*
G02*
X121330400Y-130984500I0J101600D01*
G01*
X121330400Y-128984500D01*
G75*
G02*
X121432000Y-128882900I101600J0D01*
G01*
G37*
%TD*%
%TO.C,T4*%
G36*
G01*
X125750000Y-124437900D02*
X128250000Y-124437900D01*
G75*
G02*
X128351600Y-124539500I0J-101600D01*
G01*
X128351600Y-126539500D01*
G75*
G02*
X128250000Y-126641100I-101600J0D01*
G01*
X125750000Y-126641100D01*
G75*
G02*
X125648400Y-126539500I0J101600D01*
G01*
X125648400Y-124539500D01*
G75*
G02*
X125750000Y-124437900I101600J0D01*
G01*
G37*
G36*
G01*
X125750000Y-128882900D02*
X128250000Y-128882900D01*
G75*
G02*
X128351600Y-128984500I0J-101600D01*
G01*
X128351600Y-130984500D01*
G75*
G02*
X128250000Y-131086100I-101600J0D01*
G01*
X125750000Y-131086100D01*
G75*
G02*
X125648400Y-130984500I0J101600D01*
G01*
X125648400Y-128984500D01*
G75*
G02*
X125750000Y-128882900I101600J0D01*
G01*
G37*
%TD*%
%TO.C,U1*%
G36*
G01*
X100444300Y-122059700D02*
X100444300Y-121526300D01*
G75*
G02*
X100545900Y-121424700I101600J0D01*
G01*
X102006400Y-121424700D01*
G75*
G02*
X102108000Y-121526300I0J-101600D01*
G01*
X102108000Y-122059700D01*
G75*
G02*
X102006400Y-122161300I-101600J0D01*
G01*
X100545900Y-122161300D01*
G75*
G02*
X100444300Y-122059700I0J101600D01*
G01*
G37*
G36*
G01*
X100444300Y-123329700D02*
X100444300Y-122796300D01*
G75*
G02*
X100545900Y-122694700I101600J0D01*
G01*
X102006400Y-122694700D01*
G75*
G02*
X102108000Y-122796300I0J-101600D01*
G01*
X102108000Y-123329700D01*
G75*
G02*
X102006400Y-123431300I-101600J0D01*
G01*
X100545900Y-123431300D01*
G75*
G02*
X100444300Y-123329700I0J101600D01*
G01*
G37*
G36*
G01*
X100444300Y-124599700D02*
X100444300Y-124066300D01*
G75*
G02*
X100545900Y-123964700I101600J0D01*
G01*
X102006400Y-123964700D01*
G75*
G02*
X102108000Y-124066300I0J-101600D01*
G01*
X102108000Y-124599700D01*
G75*
G02*
X102006400Y-124701300I-101600J0D01*
G01*
X100545900Y-124701300D01*
G75*
G02*
X100444300Y-124599700I0J101600D01*
G01*
G37*
G36*
G01*
X100444300Y-125869700D02*
X100444300Y-125336300D01*
G75*
G02*
X100545900Y-125234700I101600J0D01*
G01*
X102006400Y-125234700D01*
G75*
G02*
X102108000Y-125336300I0J-101600D01*
G01*
X102108000Y-125869700D01*
G75*
G02*
X102006400Y-125971300I-101600J0D01*
G01*
X100545900Y-125971300D01*
G75*
G02*
X100444300Y-125869700I0J101600D01*
G01*
G37*
G36*
G01*
X94996000Y-125869700D02*
X94996000Y-125336300D01*
G75*
G02*
X95097600Y-125234700I101600J0D01*
G01*
X96558100Y-125234700D01*
G75*
G02*
X96659700Y-125336300I0J-101600D01*
G01*
X96659700Y-125869700D01*
G75*
G02*
X96558100Y-125971300I-101600J0D01*
G01*
X95097600Y-125971300D01*
G75*
G02*
X94996000Y-125869700I0J101600D01*
G01*
G37*
G36*
G01*
X94996000Y-124599700D02*
X94996000Y-124066300D01*
G75*
G02*
X95097600Y-123964700I101600J0D01*
G01*
X96558100Y-123964700D01*
G75*
G02*
X96659700Y-124066300I0J-101600D01*
G01*
X96659700Y-124599700D01*
G75*
G02*
X96558100Y-124701300I-101600J0D01*
G01*
X95097600Y-124701300D01*
G75*
G02*
X94996000Y-124599700I0J101600D01*
G01*
G37*
G36*
G01*
X94996000Y-123329700D02*
X94996000Y-122796300D01*
G75*
G02*
X95097600Y-122694700I101600J0D01*
G01*
X96558100Y-122694700D01*
G75*
G02*
X96659700Y-122796300I0J-101600D01*
G01*
X96659700Y-123329700D01*
G75*
G02*
X96558100Y-123431300I-101600J0D01*
G01*
X95097600Y-123431300D01*
G75*
G02*
X94996000Y-123329700I0J101600D01*
G01*
G37*
G36*
G01*
X94996000Y-122059700D02*
X94996000Y-121526300D01*
G75*
G02*
X95097600Y-121424700I101600J0D01*
G01*
X96558100Y-121424700D01*
G75*
G02*
X96659700Y-121526300I0J-101600D01*
G01*
X96659700Y-122059700D01*
G75*
G02*
X96558100Y-122161300I-101600J0D01*
G01*
X95097600Y-122161300D01*
G75*
G02*
X94996000Y-122059700I0J101600D01*
G01*
G37*
%TD*%
%TO.C,U2*%
G36*
G01*
X107835700Y-103263700D02*
X107835700Y-102730300D01*
G75*
G02*
X107937300Y-102628700I101600J0D01*
G01*
X109816900Y-102628700D01*
G75*
G02*
X109918500Y-102730300I0J-101600D01*
G01*
X109918500Y-103263700D01*
G75*
G02*
X109816900Y-103365300I-101600J0D01*
G01*
X107937300Y-103365300D01*
G75*
G02*
X107835700Y-103263700I0J101600D01*
G01*
G37*
G36*
G01*
X107835700Y-104533700D02*
X107835700Y-104000300D01*
G75*
G02*
X107937300Y-103898700I101600J0D01*
G01*
X109816900Y-103898700D01*
G75*
G02*
X109918500Y-104000300I0J-101600D01*
G01*
X109918500Y-104533700D01*
G75*
G02*
X109816900Y-104635300I-101600J0D01*
G01*
X107937300Y-104635300D01*
G75*
G02*
X107835700Y-104533700I0J101600D01*
G01*
G37*
G36*
G01*
X107835700Y-105803700D02*
X107835700Y-105270300D01*
G75*
G02*
X107937300Y-105168700I101600J0D01*
G01*
X109816900Y-105168700D01*
G75*
G02*
X109918500Y-105270300I0J-101600D01*
G01*
X109918500Y-105803700D01*
G75*
G02*
X109816900Y-105905300I-101600J0D01*
G01*
X107937300Y-105905300D01*
G75*
G02*
X107835700Y-105803700I0J101600D01*
G01*
G37*
G36*
G01*
X107835700Y-107073700D02*
X107835700Y-106540300D01*
G75*
G02*
X107937300Y-106438700I101600J0D01*
G01*
X109816900Y-106438700D01*
G75*
G02*
X109918500Y-106540300I0J-101600D01*
G01*
X109918500Y-107073700D01*
G75*
G02*
X109816900Y-107175300I-101600J0D01*
G01*
X107937300Y-107175300D01*
G75*
G02*
X107835700Y-107073700I0J101600D01*
G01*
G37*
G36*
G01*
X107835700Y-108343700D02*
X107835700Y-107810300D01*
G75*
G02*
X107937300Y-107708700I101600J0D01*
G01*
X109816900Y-107708700D01*
G75*
G02*
X109918500Y-107810300I0J-101600D01*
G01*
X109918500Y-108343700D01*
G75*
G02*
X109816900Y-108445300I-101600J0D01*
G01*
X107937300Y-108445300D01*
G75*
G02*
X107835700Y-108343700I0J101600D01*
G01*
G37*
G36*
G01*
X107835700Y-109613700D02*
X107835700Y-109080300D01*
G75*
G02*
X107937300Y-108978700I101600J0D01*
G01*
X109816900Y-108978700D01*
G75*
G02*
X109918500Y-109080300I0J-101600D01*
G01*
X109918500Y-109613700D01*
G75*
G02*
X109816900Y-109715300I-101600J0D01*
G01*
X107937300Y-109715300D01*
G75*
G02*
X107835700Y-109613700I0J101600D01*
G01*
G37*
G36*
G01*
X107835700Y-110883700D02*
X107835700Y-110350300D01*
G75*
G02*
X107937300Y-110248700I101600J0D01*
G01*
X109816900Y-110248700D01*
G75*
G02*
X109918500Y-110350300I0J-101600D01*
G01*
X109918500Y-110883700D01*
G75*
G02*
X109816900Y-110985300I-101600J0D01*
G01*
X107937300Y-110985300D01*
G75*
G02*
X107835700Y-110883700I0J101600D01*
G01*
G37*
G36*
G01*
X107835700Y-112153700D02*
X107835700Y-111620300D01*
G75*
G02*
X107937300Y-111518700I101600J0D01*
G01*
X109816900Y-111518700D01*
G75*
G02*
X109918500Y-111620300I0J-101600D01*
G01*
X109918500Y-112153700D01*
G75*
G02*
X109816900Y-112255300I-101600J0D01*
G01*
X107937300Y-112255300D01*
G75*
G02*
X107835700Y-112153700I0J101600D01*
G01*
G37*
G36*
G01*
X107835700Y-113423700D02*
X107835700Y-112890300D01*
G75*
G02*
X107937300Y-112788700I101600J0D01*
G01*
X109816900Y-112788700D01*
G75*
G02*
X109918500Y-112890300I0J-101600D01*
G01*
X109918500Y-113423700D01*
G75*
G02*
X109816900Y-113525300I-101600J0D01*
G01*
X107937300Y-113525300D01*
G75*
G02*
X107835700Y-113423700I0J101600D01*
G01*
G37*
G36*
G01*
X107835700Y-114693700D02*
X107835700Y-114160300D01*
G75*
G02*
X107937300Y-114058700I101600J0D01*
G01*
X109816900Y-114058700D01*
G75*
G02*
X109918500Y-114160300I0J-101600D01*
G01*
X109918500Y-114693700D01*
G75*
G02*
X109816900Y-114795300I-101600J0D01*
G01*
X107937300Y-114795300D01*
G75*
G02*
X107835700Y-114693700I0J101600D01*
G01*
G37*
G36*
G01*
X98361500Y-114693700D02*
X98361500Y-114160300D01*
G75*
G02*
X98463100Y-114058700I101600J0D01*
G01*
X100342700Y-114058700D01*
G75*
G02*
X100444300Y-114160300I0J-101600D01*
G01*
X100444300Y-114693700D01*
G75*
G02*
X100342700Y-114795300I-101600J0D01*
G01*
X98463100Y-114795300D01*
G75*
G02*
X98361500Y-114693700I0J101600D01*
G01*
G37*
G36*
G01*
X98361500Y-113423700D02*
X98361500Y-112890300D01*
G75*
G02*
X98463100Y-112788700I101600J0D01*
G01*
X100342700Y-112788700D01*
G75*
G02*
X100444300Y-112890300I0J-101600D01*
G01*
X100444300Y-113423700D01*
G75*
G02*
X100342700Y-113525300I-101600J0D01*
G01*
X98463100Y-113525300D01*
G75*
G02*
X98361500Y-113423700I0J101600D01*
G01*
G37*
G36*
G01*
X98361500Y-112153700D02*
X98361500Y-111620300D01*
G75*
G02*
X98463100Y-111518700I101600J0D01*
G01*
X100342700Y-111518700D01*
G75*
G02*
X100444300Y-111620300I0J-101600D01*
G01*
X100444300Y-112153700D01*
G75*
G02*
X100342700Y-112255300I-101600J0D01*
G01*
X98463100Y-112255300D01*
G75*
G02*
X98361500Y-112153700I0J101600D01*
G01*
G37*
G36*
G01*
X98361500Y-110883700D02*
X98361500Y-110350300D01*
G75*
G02*
X98463100Y-110248700I101600J0D01*
G01*
X100342700Y-110248700D01*
G75*
G02*
X100444300Y-110350300I0J-101600D01*
G01*
X100444300Y-110883700D01*
G75*
G02*
X100342700Y-110985300I-101600J0D01*
G01*
X98463100Y-110985300D01*
G75*
G02*
X98361500Y-110883700I0J101600D01*
G01*
G37*
G36*
G01*
X98361500Y-109613700D02*
X98361500Y-109080300D01*
G75*
G02*
X98463100Y-108978700I101600J0D01*
G01*
X100342700Y-108978700D01*
G75*
G02*
X100444300Y-109080300I0J-101600D01*
G01*
X100444300Y-109613700D01*
G75*
G02*
X100342700Y-109715300I-101600J0D01*
G01*
X98463100Y-109715300D01*
G75*
G02*
X98361500Y-109613700I0J101600D01*
G01*
G37*
G36*
G01*
X98361500Y-108343700D02*
X98361500Y-107810300D01*
G75*
G02*
X98463100Y-107708700I101600J0D01*
G01*
X100342700Y-107708700D01*
G75*
G02*
X100444300Y-107810300I0J-101600D01*
G01*
X100444300Y-108343700D01*
G75*
G02*
X100342700Y-108445300I-101600J0D01*
G01*
X98463100Y-108445300D01*
G75*
G02*
X98361500Y-108343700I0J101600D01*
G01*
G37*
G36*
G01*
X98361500Y-107073700D02*
X98361500Y-106540300D01*
G75*
G02*
X98463100Y-106438700I101600J0D01*
G01*
X100342700Y-106438700D01*
G75*
G02*
X100444300Y-106540300I0J-101600D01*
G01*
X100444300Y-107073700D01*
G75*
G02*
X100342700Y-107175300I-101600J0D01*
G01*
X98463100Y-107175300D01*
G75*
G02*
X98361500Y-107073700I0J101600D01*
G01*
G37*
G36*
G01*
X98361500Y-105803700D02*
X98361500Y-105270300D01*
G75*
G02*
X98463100Y-105168700I101600J0D01*
G01*
X100342700Y-105168700D01*
G75*
G02*
X100444300Y-105270300I0J-101600D01*
G01*
X100444300Y-105803700D01*
G75*
G02*
X100342700Y-105905300I-101600J0D01*
G01*
X98463100Y-105905300D01*
G75*
G02*
X98361500Y-105803700I0J101600D01*
G01*
G37*
G36*
G01*
X98361500Y-104533700D02*
X98361500Y-104000300D01*
G75*
G02*
X98463100Y-103898700I101600J0D01*
G01*
X100342700Y-103898700D01*
G75*
G02*
X100444300Y-104000300I0J-101600D01*
G01*
X100444300Y-104533700D01*
G75*
G02*
X100342700Y-104635300I-101600J0D01*
G01*
X98463100Y-104635300D01*
G75*
G02*
X98361500Y-104533700I0J101600D01*
G01*
G37*
G36*
G01*
X98361500Y-103263700D02*
X98361500Y-102730300D01*
G75*
G02*
X98463100Y-102628700I101600J0D01*
G01*
X100342700Y-102628700D01*
G75*
G02*
X100444300Y-102730300I0J-101600D01*
G01*
X100444300Y-103263700D01*
G75*
G02*
X100342700Y-103365300I-101600J0D01*
G01*
X98463100Y-103365300D01*
G75*
G02*
X98361500Y-103263700I0J101600D01*
G01*
G37*
%TD*%
D19*
%TO.C,J1*%
X313093100Y-108305600D03*
X323253100Y-105765600D03*
X313093100Y-113385600D03*
X323253100Y-110845600D03*
X313093100Y-118465600D03*
X323253100Y-115925600D03*
X313093100Y-123545600D03*
X323253100Y-121005600D03*
X313093100Y-128625600D03*
X323253100Y-126085600D03*
X313093100Y-133705600D03*
X323253100Y-131165600D03*
X313093100Y-138785600D03*
X323253100Y-136245600D03*
X313093100Y-143865600D03*
X323253100Y-141325600D03*
X313093100Y-148945600D03*
X323253100Y-146405600D03*
X313093100Y-154025600D03*
X323253100Y-151485600D03*
X313093100Y-159105600D03*
X323253100Y-156565600D03*
X313093100Y-164185600D03*
X323253100Y-161645600D03*
%TD*%
D20*
%TO.C,J2*%
X135166100Y-64871600D03*
X146596100Y-64871600D03*
G36*
G01*
X146367500Y-70281800D02*
X146367500Y-72161400D01*
G75*
G02*
X146265900Y-72263000I-101600J0D01*
G01*
X144386300Y-72263000D01*
G75*
G02*
X144284700Y-72161400I0J101600D01*
G01*
X144284700Y-70281800D01*
G75*
G02*
X144386300Y-70180200I101600J0D01*
G01*
X146265900Y-70180200D01*
G75*
G02*
X146367500Y-70281800I0J-101600D01*
G01*
G37*
D21*
X142786100Y-71221600D03*
X140246100Y-71221600D03*
X144056100Y-73761600D03*
X141516100Y-73761600D03*
X138976100Y-73761600D03*
X137706100Y-71221600D03*
X136436100Y-73761600D03*
%TD*%
D20*
%TO.C,J3*%
X152946100Y-64871600D03*
X164376100Y-64871600D03*
G36*
G01*
X164147500Y-70281800D02*
X164147500Y-72161400D01*
G75*
G02*
X164045900Y-72263000I-101600J0D01*
G01*
X162166300Y-72263000D01*
G75*
G02*
X162064700Y-72161400I0J101600D01*
G01*
X162064700Y-70281800D01*
G75*
G02*
X162166300Y-70180200I101600J0D01*
G01*
X164045900Y-70180200D01*
G75*
G02*
X164147500Y-70281800I0J-101600D01*
G01*
G37*
D21*
X160566100Y-71221600D03*
X158026100Y-71221600D03*
X161836100Y-73761600D03*
X159296100Y-73761600D03*
X156756100Y-73761600D03*
X155486100Y-71221600D03*
X154216100Y-73761600D03*
%TD*%
%TO.C,R5*%
G36*
G01*
X112534000Y-79954400D02*
X114034000Y-79954400D01*
G75*
G02*
X114135600Y-80056000I0J-101600D01*
G01*
X114135600Y-81356000D01*
G75*
G02*
X114034000Y-81457600I-101600J0D01*
G01*
X112534000Y-81457600D01*
G75*
G02*
X112432400Y-81356000I0J101600D01*
G01*
X112432400Y-80056000D01*
G75*
G02*
X112534000Y-79954400I101600J0D01*
G01*
G37*
G36*
G01*
X112534000Y-78054400D02*
X114034000Y-78054400D01*
G75*
G02*
X114135600Y-78156000I0J-101600D01*
G01*
X114135600Y-79456000D01*
G75*
G02*
X114034000Y-79557600I-101600J0D01*
G01*
X112534000Y-79557600D01*
G75*
G02*
X112432400Y-79456000I0J101600D01*
G01*
X112432400Y-78156000D01*
G75*
G02*
X112534000Y-78054400I101600J0D01*
G01*
G37*
%TD*%
%TO.C,R6*%
G36*
G01*
X102096000Y-79557600D02*
X100596000Y-79557600D01*
G75*
G02*
X100494400Y-79456000I0J101600D01*
G01*
X100494400Y-78156000D01*
G75*
G02*
X100596000Y-78054400I101600J0D01*
G01*
X102096000Y-78054400D01*
G75*
G02*
X102197600Y-78156000I0J-101600D01*
G01*
X102197600Y-79456000D01*
G75*
G02*
X102096000Y-79557600I-101600J0D01*
G01*
G37*
G36*
G01*
X102096000Y-81457600D02*
X100596000Y-81457600D01*
G75*
G02*
X100494400Y-81356000I0J101600D01*
G01*
X100494400Y-80056000D01*
G75*
G02*
X100596000Y-79954400I101600J0D01*
G01*
X102096000Y-79954400D01*
G75*
G02*
X102197600Y-80056000I0J-101600D01*
G01*
X102197600Y-81356000D01*
G75*
G02*
X102096000Y-81457600I-101600J0D01*
G01*
G37*
%TD*%
%TO.C,R7*%
G36*
G01*
X98540000Y-79557600D02*
X97040000Y-79557600D01*
G75*
G02*
X96938400Y-79456000I0J101600D01*
G01*
X96938400Y-78156000D01*
G75*
G02*
X97040000Y-78054400I101600J0D01*
G01*
X98540000Y-78054400D01*
G75*
G02*
X98641600Y-78156000I0J-101600D01*
G01*
X98641600Y-79456000D01*
G75*
G02*
X98540000Y-79557600I-101600J0D01*
G01*
G37*
G36*
G01*
X98540000Y-81457600D02*
X97040000Y-81457600D01*
G75*
G02*
X96938400Y-81356000I0J101600D01*
G01*
X96938400Y-80056000D01*
G75*
G02*
X97040000Y-79954400I101600J0D01*
G01*
X98540000Y-79954400D01*
G75*
G02*
X98641600Y-80056000I0J-101600D01*
G01*
X98641600Y-81356000D01*
G75*
G02*
X98540000Y-81457600I-101600J0D01*
G01*
G37*
%TD*%
%TO.C,R8*%
G36*
G01*
X108954000Y-79557600D02*
X107454000Y-79557600D01*
G75*
G02*
X107352400Y-79456000I0J101600D01*
G01*
X107352400Y-78156000D01*
G75*
G02*
X107454000Y-78054400I101600J0D01*
G01*
X108954000Y-78054400D01*
G75*
G02*
X109055600Y-78156000I0J-101600D01*
G01*
X109055600Y-79456000D01*
G75*
G02*
X108954000Y-79557600I-101600J0D01*
G01*
G37*
G36*
G01*
X108954000Y-81457600D02*
X107454000Y-81457600D01*
G75*
G02*
X107352400Y-81356000I0J101600D01*
G01*
X107352400Y-80056000D01*
G75*
G02*
X107454000Y-79954400I101600J0D01*
G01*
X108954000Y-79954400D01*
G75*
G02*
X109055600Y-80056000I0J-101600D01*
G01*
X109055600Y-81356000D01*
G75*
G02*
X108954000Y-81457600I-101600J0D01*
G01*
G37*
%TD*%
D14*
%TO.C,X1*%
X129032000Y-92456000D03*
%TD*%
%TO.C,X2*%
X151892000Y-93218000D03*
%TD*%
%TO.C,X3*%
X229616000Y-102362000D03*
%TD*%
%TO.C,X4*%
X259080000Y-104902000D03*
%TD*%
%TO.C,X6*%
X119888000Y-62992000D03*
%TD*%
%TO.C,X7*%
X259080000Y-107442000D03*
%TD*%
%TO.C,X9*%
X242062000Y-89662000D03*
%TD*%
%TO.C,X10*%
X242062000Y-104902000D03*
%TD*%
%TO.C,X11*%
X242062000Y-107442000D03*
%TD*%
%TO.C,X12*%
X259080000Y-109982000D03*
%TD*%
%TO.C,X13*%
X229616000Y-99822000D03*
%TD*%
%TO.C,X14*%
X242062000Y-109982000D03*
%TD*%
%TO.C,X15*%
X229616000Y-89408000D03*
%TD*%
%TO.C,X17*%
X209550000Y-99568000D03*
%TD*%
%TO.C,X20*%
X107188000Y-62992000D03*
%TD*%
%TO.C,X21*%
X130302000Y-67818000D03*
%TD*%
%TO.C,X22*%
X122428000Y-62992000D03*
%TD*%
%TO.C,X23*%
X126492000Y-92456000D03*
%TD*%
%TO.C,X24*%
X259080000Y-84582000D03*
%TD*%
%TO.C,X25*%
X259080000Y-87122000D03*
%TD*%
%TO.C,X26*%
X259080000Y-89662000D03*
%TD*%
%TO.C,X28*%
X259080000Y-92202000D03*
%TD*%
%TO.C,X29*%
X259080000Y-102362000D03*
%TD*%
%TO.C,X30*%
X242062000Y-84582000D03*
%TD*%
%TO.C,X31*%
X242062000Y-87122000D03*
%TD*%
%TO.C,X32*%
X242062000Y-92202000D03*
%TD*%
%TO.C,X33*%
X242062000Y-102362000D03*
%TD*%
%TO.C,X34*%
X229616000Y-84328000D03*
%TD*%
%TO.C,X35*%
X229616000Y-86868000D03*
%TD*%
%TO.C,X36*%
X229616000Y-97282000D03*
%TD*%
%TO.C,X37*%
X229616000Y-91948000D03*
%TD*%
%TO.C,X38*%
X209550000Y-84328000D03*
%TD*%
%TO.C,X39*%
X242062000Y-99822000D03*
%TD*%
%TO.C,X40*%
X259080000Y-99822000D03*
%TD*%
%TO.C,X41*%
X229616000Y-94742000D03*
%TD*%
%TO.C,X42*%
X242062000Y-94742000D03*
%TD*%
%TO.C,X43*%
X259080000Y-94742000D03*
%TD*%
%TO.C,X44*%
X109728000Y-62992000D03*
%TD*%
%TO.C,X45*%
X112268000Y-62992000D03*
%TD*%
%TO.C,X46*%
X117348000Y-62992000D03*
%TD*%
%TO.C,X47*%
X125222000Y-65024000D03*
%TD*%
%TO.C,X49*%
X114808000Y-62992000D03*
%TD*%
%TO.C,X50*%
X104648000Y-62992000D03*
%TD*%
%TO.C,X51*%
X209550000Y-94488000D03*
%TD*%
%TO.C,X52*%
X209550000Y-97028000D03*
%TD*%
%TO.C,X53*%
X209550000Y-91948000D03*
%TD*%
%TO.C,X54*%
X196088000Y-97282000D03*
%TD*%
%TO.C,X55*%
X196088000Y-94742000D03*
%TD*%
%TO.C,X56*%
X177038000Y-94742000D03*
%TD*%
%TO.C,X57*%
X231140000Y-155194000D03*
%TD*%
%TO.C,X59*%
X231140000Y-150114000D03*
%TD*%
%TO.C,X60*%
X231140000Y-152654000D03*
%TD*%
%TO.C,X61*%
X253492000Y-150114000D03*
%TD*%
%TO.C,X62*%
X177038000Y-97282000D03*
%TD*%
%TO.C,X63*%
X177038000Y-92202000D03*
%TD*%
%TO.C,X64*%
X196088000Y-92202000D03*
%TD*%
%TO.C,X67*%
X253492000Y-152654000D03*
%TD*%
%TO.C,X68*%
X209550000Y-89408000D03*
%TD*%
%TO.C,X69*%
X209550000Y-102108000D03*
%TD*%
%TO.C,X70*%
X196088000Y-99822000D03*
%TD*%
%TO.C,X71*%
X196088000Y-89662000D03*
%TD*%
%TO.C,X72*%
X196088000Y-102362000D03*
%TD*%
%TO.C,X73*%
X177038000Y-99822000D03*
%TD*%
%TO.C,X74*%
X177038000Y-89662000D03*
%TD*%
%TO.C,X75*%
X177038000Y-102362000D03*
%TD*%
%TO.C,X76*%
X253492000Y-157734000D03*
%TD*%
%TO.C,X77*%
X253492000Y-147574000D03*
%TD*%
%TO.C,X78*%
X253492000Y-160274000D03*
%TD*%
%TO.C,X79*%
X231140000Y-157734000D03*
%TD*%
%TO.C,X80*%
X253492000Y-155194000D03*
%TD*%
%TO.C,X81*%
X231140000Y-147574000D03*
%TD*%
%TO.C,X82*%
X231140000Y-160274000D03*
%TD*%
M02*
