Drill report for C:/Users/Brian/Documents/eagle/projects/OOI ESP/EngineeringSupportPlatform.kicad_pcb
Created on 8/22/2021 6:56:32 PM

Copper Layer Stackup:
    =============================================================
    L1 :  Top                       front
    L2 :  Bottom                    back


Drill file 'EngineeringSupportPlatform.drl' contains
    plated through holes:
    =============================================================
    T1  0.400mm  0.0157"  (154 holes)
    T2  0.838mm  0.0330"  (24 holes)
    T3  0.889mm  0.0350"  (384 holes)
    T4  1.000mm  0.0394"  (100 holes)
    T5  1.020mm  0.0402"  (7 holes)
    T6  1.194mm  0.0470"  (108 holes)
    T7  1.400mm  0.0551"  (4 holes)
    T8  1.524mm  0.0600"  (24 holes)
    T9  1.651mm  0.0650"  (4 holes)
    T10  3.048mm  0.1200"  (24 holes)

    Total plated holes count 833


Not plated through holes are merged with plated holes
    unplated through holes:
    =============================================================
    T11  3.200mm  0.1260"  (4 holes)

    Total unplated holes count 4
