%TF.GenerationSoftware,KiCad,Pcbnew,(5.1.10)-1*%
%TF.CreationDate,2021-08-22T18:56:45-04:00*%
%TF.ProjectId,EngineeringSupportPlatform,456e6769-6e65-4657-9269-6e6753757070,rev?*%
%TF.SameCoordinates,Original*%
%TF.FileFunction,Paste,Top*%
%TF.FilePolarity,Positive*%
%FSLAX46Y46*%
G04 Gerber Fmt 4.6, Leading zero omitted, Abs format (unit mm)*
G04 Created by KiCad (PCBNEW (5.1.10)-1) date 2021-08-22 18:56:45*
%MOMM*%
%LPD*%
G01*
G04 APERTURE LIST*
%ADD10R,0.650000X0.850000*%
%ADD11R,1.500000X1.300000*%
%ADD12R,1.100000X1.400000*%
%ADD13R,1.400000X1.100000*%
%ADD14R,1.300000X1.500000*%
%ADD15R,2.500000X2.000000*%
%ADD16R,1.460500X0.533400*%
%ADD17R,1.879600X0.533400*%
G04 APERTURE END LIST*
D10*
%TO.C,U13*%
X190634000Y-83349000D03*
X189784000Y-83349000D03*
X189784000Y-84799000D03*
X190634000Y-84799000D03*
%TD*%
%TO.C,U12*%
X237832000Y-85127000D03*
X236982000Y-85127000D03*
X236982000Y-86577000D03*
X237832000Y-86577000D03*
%TD*%
%TO.C,U11*%
X167303000Y-83095000D03*
X166453000Y-83095000D03*
X166453000Y-84545000D03*
X167303000Y-84545000D03*
%TD*%
%TO.C,U10*%
X223183000Y-84365000D03*
X222333000Y-84365000D03*
X222333000Y-85815000D03*
X223183000Y-85815000D03*
%TD*%
%TO.C,U9*%
X248329000Y-145833000D03*
X247479000Y-145833000D03*
X247479000Y-147283000D03*
X248329000Y-147283000D03*
%TD*%
%TO.C,U8*%
X203117000Y-84111000D03*
X202267000Y-84111000D03*
X202267000Y-85561000D03*
X203117000Y-85561000D03*
%TD*%
%TO.C,U7*%
X222929000Y-149897000D03*
X222079000Y-149897000D03*
X222079000Y-151347000D03*
X222929000Y-151347000D03*
%TD*%
D11*
%TO.C,R24*%
X191262000Y-86934000D03*
X191262000Y-88834000D03*
%TD*%
%TO.C,R23*%
X188976000Y-86934000D03*
X188976000Y-88834000D03*
%TD*%
%TO.C,R22*%
X238506000Y-88712000D03*
X238506000Y-90612000D03*
%TD*%
%TO.C,R21*%
X167894000Y-86680000D03*
X167894000Y-88580000D03*
%TD*%
%TO.C,R20*%
X236220000Y-88712000D03*
X236220000Y-90612000D03*
%TD*%
%TO.C,R19*%
X165862000Y-86680000D03*
X165862000Y-88580000D03*
%TD*%
%TO.C,R18*%
X223774000Y-87950000D03*
X223774000Y-89850000D03*
%TD*%
%TO.C,R17*%
X248920000Y-149418000D03*
X248920000Y-151318000D03*
%TD*%
%TO.C,R16*%
X221488000Y-87950000D03*
X221488000Y-89850000D03*
%TD*%
%TO.C,R15*%
X246888000Y-149418000D03*
X246888000Y-151318000D03*
%TD*%
%TO.C,R14*%
X203708000Y-87630000D03*
X203708000Y-89530000D03*
%TD*%
%TO.C,R13*%
X223520000Y-153482000D03*
X223520000Y-155382000D03*
%TD*%
%TO.C,R12*%
X201676000Y-87630000D03*
X201676000Y-89530000D03*
%TD*%
%TO.C,R10*%
X221488000Y-153482000D03*
X221488000Y-155382000D03*
%TD*%
%TO.C,R11*%
X254762000Y-88966000D03*
X254762000Y-90866000D03*
%TD*%
%TO.C,R9*%
X252730000Y-88966000D03*
X252730000Y-90866000D03*
%TD*%
D10*
%TO.C,U6*%
X254171000Y-85635000D03*
X253321000Y-85635000D03*
X253321000Y-87085000D03*
X254171000Y-87085000D03*
%TD*%
D12*
%TO.C,C1*%
X92694000Y-122174000D03*
X90694000Y-122174000D03*
%TD*%
%TO.C,C2*%
X92694000Y-124968000D03*
X90694000Y-124968000D03*
%TD*%
D13*
%TO.C,C3*%
X94996000Y-111522000D03*
X94996000Y-113522000D03*
%TD*%
D14*
%TO.C,R1*%
X103952000Y-121666000D03*
X105852000Y-121666000D03*
%TD*%
%TO.C,R2*%
X107762000Y-123190000D03*
X109662000Y-123190000D03*
%TD*%
%TO.C,R3*%
X103952000Y-124460000D03*
X105852000Y-124460000D03*
%TD*%
%TO.C,R4*%
X107762000Y-125730000D03*
X109662000Y-125730000D03*
%TD*%
D15*
%TO.C,T1*%
X113538000Y-125539500D03*
X113538000Y-129984500D03*
%TD*%
%TO.C,T2*%
X118364000Y-125539500D03*
X118364000Y-129984500D03*
%TD*%
%TO.C,T3*%
X122682000Y-125539500D03*
X122682000Y-129984500D03*
%TD*%
%TO.C,T4*%
X127000000Y-125539500D03*
X127000000Y-129984500D03*
%TD*%
D16*
%TO.C,U1*%
X101276150Y-121793000D03*
X101276150Y-123063000D03*
X101276150Y-124333000D03*
X101276150Y-125603000D03*
X95827850Y-125603000D03*
X95827850Y-124333000D03*
X95827850Y-123063000D03*
X95827850Y-121793000D03*
%TD*%
D17*
%TO.C,U2*%
X108877100Y-102997000D03*
X108877100Y-104267000D03*
X108877100Y-105537000D03*
X108877100Y-106807000D03*
X108877100Y-108077000D03*
X108877100Y-109347000D03*
X108877100Y-110617000D03*
X108877100Y-111887000D03*
X108877100Y-113157000D03*
X108877100Y-114427000D03*
X99402900Y-114427000D03*
X99402900Y-113157000D03*
X99402900Y-111887000D03*
X99402900Y-110617000D03*
X99402900Y-109347000D03*
X99402900Y-108077000D03*
X99402900Y-106807000D03*
X99402900Y-105537000D03*
X99402900Y-104267000D03*
X99402900Y-102997000D03*
%TD*%
D11*
%TO.C,R5*%
X113284000Y-80706000D03*
X113284000Y-78806000D03*
%TD*%
%TO.C,R6*%
X101346000Y-78806000D03*
X101346000Y-80706000D03*
%TD*%
%TO.C,R7*%
X97790000Y-78806000D03*
X97790000Y-80706000D03*
%TD*%
%TO.C,R8*%
X108204000Y-78806000D03*
X108204000Y-80706000D03*
%TD*%
M02*
