Source:,C:\Users\Brian\Documents\eagle\projects\OOI ESP\EngineeringSupportPlatform.sch,,,,,,,,,,,,,,,,,,
Date:,9/15/2021 15:22,,,,,,,,,,,,,,,,,,
Tool:,Eeschema (5.1.10)-1,,,,,,,,,,,,,,,,,,
Generator:,C:\Program Files\KiCad\bin\scripting\plugins/bom_csv_grouped_by_value.py,,,,,,,,,,,,,,,,,,
Component Count:,141,,,,,,,,,,,,,,,,,,
,,,,,,,,,,,,,,,,,,,
Individual Components:,,,,,,,,,,,,,,,,,,,
,,,,,,,,,,,,,,,,,,,
Item,Qty,Reference(s),Value,,,LibPart,Footprint,Datasheet,Category,DK_Datasheet_Link,DK_Detail_Page,Description,Digi-Key_PN,FUNCTION,Family,Field4,MPN,Manufacturer,Status
,,C1,0.1uF,,,EngineeringSupportPlatform-eagle-import:C-USC0805K,EngineeringSupportPlatform:C0805K,,,,,,,,,,,,
,,C2,10uF,,,EngineeringSupportPlatform-eagle-import:C-USC0805K,EngineeringSupportPlatform:C0805K,,,,,,,,,,,,
,,C3,0.1uF,,,EngineeringSupportPlatform-eagle-import:C-USC0805K,EngineeringSupportPlatform:C0805K,,,,,,,,,,,,
,,J1,1-284061-2,,,EngineeringSupportPlatform-eagle-import:1-284061-2,EngineeringSupportPlatform:CONN24_1-284061-2,,,,,,,,,,,,
,,J2,WIFI,,,EngineeringSupportPlatform-eagle-import:RJ45-8,EngineeringSupportPlatform:RJ45-8,,,,,,,TO BULLET,,,,,
,,J3,ETHERNET,,,EngineeringSupportPlatform-eagle-import:RJ45-8,EngineeringSupportPlatform:RJ45-8,,,,,,,FROM ENET,,,,,
,,J4,CONN_02PTH4,,,SparkFun-Connectors:CONN_02PTH4,Connector_Molex:Molex_Mini-Fit_Jr_5566-02A_2x01_P4.20mm_Vertical,,,,,,,,,XXX-00000,,,
,,J5,CONN_02PTH4,,,SparkFun-Connectors:CONN_02PTH4,Connector_Molex:Molex_Mini-Fit_Jr_5566-02A_2x01_P4.20mm_Vertical,,,,,,,,,XXX-00000,,,
,,J8,5536501-4,,,EngineeringSupportPlatform-eagle-import:5536501-4,EngineeringSupportPlatform:CONN_5536501-4_TYC,,,,,,,,,,,,
,,J9,5536501-4,,,EngineeringSupportPlatform-eagle-import:5536501-4,EngineeringSupportPlatform:CONN_5536501-4_TYC,,,,,,,,,,,,
,,J10,178-009-513R571,,,EngineeringSupportPlatform-eagle-import:178-009-513R571,EngineeringSupportPlatform:CONN_178-009-513R571_NRC,,,,,,,,,,,,
,,J11,178-009-513R571,,,EngineeringSupportPlatform-eagle-import:178-009-513R571,EngineeringSupportPlatform:CONN_178-009-513R571_NRC,,,,,,,,,,,,
,,J12,178-009-513R571,,,EngineeringSupportPlatform-eagle-import:178-009-513R571,EngineeringSupportPlatform:CONN_178-009-513R571_NRC,,,,,,,,,,,,
,,J13,178-009-513R571,,,EngineeringSupportPlatform-eagle-import:178-009-513R571,EngineeringSupportPlatform:CONN_178-009-513R571_NRC,,,,,,,,,,,,
,,J14,178-009-513R571,,,EngineeringSupportPlatform-eagle-import:178-009-513R571,EngineeringSupportPlatform:CONN_178-009-513R571_NRC,,,,,,,,,,,,
,,J15,178-009-513R571,,,EngineeringSupportPlatform-eagle-import:178-009-513R571,EngineeringSupportPlatform:CONN_178-009-513R571_NRC,,,,,,,,,,,,
,,R1,10R,,,EngineeringSupportPlatform-eagle-import:R-US_R0805,EngineeringSupportPlatform:R0805,,,,,,,,,,,,
,,R2,10R,,,EngineeringSupportPlatform-eagle-import:R-US_R0805,EngineeringSupportPlatform:R0805,,,,,,,,,,,,
,,R3,10R,,,EngineeringSupportPlatform-eagle-import:R-US_R0805,EngineeringSupportPlatform:R0805,,,,,,,,,,,,
,,R4,10R,,,EngineeringSupportPlatform-eagle-import:R-US_R0805,EngineeringSupportPlatform:R0805,,,,,,,,,,,,
,,R5,0R,,,EngineeringSupportPlatform-eagle-import:R-US_R0805,EngineeringSupportPlatform:R0805,,,,,,,,,,,,
,,R6,TBD,,,EngineeringSupportPlatform-eagle-import:R-US_R0805,EngineeringSupportPlatform:R0805,,,,,,,,,,,,
,,R7,TBD,,,EngineeringSupportPlatform-eagle-import:R-US_R0805,EngineeringSupportPlatform:R0805,,,,,,,,,,,,
,,R8,TBD,,,EngineeringSupportPlatform-eagle-import:R-US_R0805,EngineeringSupportPlatform:R0805,,,,,,,,,,,,
,,R9,4K7,,,SparkFun-Resistors:RESISTOR0805,EngineeringSupportPlatform:R0805,,,,,,,,,,,,
,,R10,4K7,,,SparkFun-Resistors:RESISTOR0805,EngineeringSupportPlatform:R0805,,,,,,,,,,,,
,,R11,4K7,,,SparkFun-Resistors:RESISTOR0805,EngineeringSupportPlatform:R0805,,,,,,,,,,,,
,,R12,4K7,,,SparkFun-Resistors:RESISTOR0805,EngineeringSupportPlatform:R0805,,,,,,,,,,,,
,,R13,4K7,,,SparkFun-Resistors:RESISTOR0805,EngineeringSupportPlatform:R0805,,,,,,,,,,,,
,,R14,4K7,,,SparkFun-Resistors:RESISTOR0805,EngineeringSupportPlatform:R0805,,,,,,,,,,,,
,,R15,4K7,,,SparkFun-Resistors:RESISTOR0805,EngineeringSupportPlatform:R0805,,,,,,,,,,,,
,,R16,4K7,,,SparkFun-Resistors:RESISTOR0805,EngineeringSupportPlatform:R0805,,,,,,,,,,,,
,,R17,4K7,,,SparkFun-Resistors:RESISTOR0805,EngineeringSupportPlatform:R0805,,,,,,,,,,,,
,,R18,4K7,,,SparkFun-Resistors:RESISTOR0805,EngineeringSupportPlatform:R0805,,,,,,,,,,,,
,,R19,4K7,,,SparkFun-Resistors:RESISTOR0805,EngineeringSupportPlatform:R0805,,,,,,,,,,,,
,,R20,4K7,,,SparkFun-Resistors:RESISTOR0805,EngineeringSupportPlatform:R0805,,,,,,,,,,,,
,,R21,4K7,,,SparkFun-Resistors:RESISTOR0805,EngineeringSupportPlatform:R0805,,,,,,,,,,,,
,,R22,4K7,,,SparkFun-Resistors:RESISTOR0805,EngineeringSupportPlatform:R0805,,,,,,,,,,,,
,,R23,4K7,,,SparkFun-Resistors:RESISTOR0805,EngineeringSupportPlatform:R0805,,,,,,,,,,,,
,,R24,4K7,,,SparkFun-Resistors:RESISTOR0805,EngineeringSupportPlatform:R0805,,,,,,,,,,,,
,,T1,SUPRESSOR_TVS-UD-SMAJ,,,EngineeringSupportPlatform-eagle-import:SUPRESSOR_TVS-UD-SMAJ,EngineeringSupportPlatform:SUPRESSOR_SMAJ,,,,,,,,,,,,
,,T2,SUPRESSOR_TVS-UD-SMAJ,,,EngineeringSupportPlatform-eagle-import:SUPRESSOR_TVS-UD-SMAJ,EngineeringSupportPlatform:SUPRESSOR_SMAJ,,,,,,,,,,,,
,,T3,SUPRESSOR_TVS-UD-SMAJ,,,EngineeringSupportPlatform-eagle-import:SUPRESSOR_TVS-UD-SMAJ,EngineeringSupportPlatform:SUPRESSOR_SMAJ,,,,,,,,,,,,
,,T4,SUPRESSOR_TVS-UD-SMAJ,,,EngineeringSupportPlatform-eagle-import:SUPRESSOR_TVS-UD-SMAJ,EngineeringSupportPlatform:SUPRESSOR_SMAJ,,,,,,,,,,,,
,,U1,MAX490CSA+,,,EngineeringSupportPlatform-eagle-import:MAX490CSA+,EngineeringSupportPlatform:21-0041B_8_MXM,,,,,,,,,,,,
,,U2,MAX3235ECWP+G36,,,EngineeringSupportPlatform-eagle-import:MAX3235ECWP+G36,EngineeringSupportPlatform:21-0042B_20_MXM,,,,,,,,,,,,
,,U3,G6K-2P_DC24,,,Omron:G6K-2P_DC24,Footprint:Omron_G6K-2P-DC24,,,,,,,,,,,,
,,U4,G6K-2P_DC24,,,Omron:G6K-2P_DC24,Footprint:Omron_G6K-2P-DC24,,,,,,,,,,,,
,,U5,G6K-2P_DC24,,,Omron:G6K-2P_DC24,Footprint:Omron_G6K-2P-DC24,,,,,,,,,,,,
,,U6,LTST-C155-dgi2,,,rescue:LTST-C155-dgi2,LED_SMD:LED_LiteOn_LTST-C19HE1WT,,,,,,,,,,,,
,,U7,LTST-C155-dgi2,,,rescue:LTST-C155-dgi2,LED_SMD:LED_LiteOn_LTST-C19HE1WT,,,,,,,,,,,,
,,U8,LTST-C155-dgi2,,,rescue:LTST-C155-dgi2,LED_SMD:LED_LiteOn_LTST-C19HE1WT,,,,,,,,,,,,
,,U9,LTST-C155-dgi2,,,rescue:LTST-C155-dgi2,LED_SMD:LED_LiteOn_LTST-C19HE1WT,,,,,,,,,,,,
,,U10,LTST-C155-dgi2,,,rescue:LTST-C155-dgi2,LED_SMD:LED_LiteOn_LTST-C19HE1WT,,,,,,,,,,,,
,,U11,LTST-C155-dgi2,,,rescue:LTST-C155-dgi2,LED_SMD:LED_LiteOn_LTST-C19HE1WT,,,,,,,,,,,,
,,U12,LTST-C155-dgi2,,,rescue:LTST-C155-dgi2,LED_SMD:LED_LiteOn_LTST-C19HE1WT,,,,,,,,,,,,
,,U13,LTST-C155-dgi2,,,rescue:LTST-C155-dgi2,LED_SMD:LED_LiteOn_LTST-C19HE1WT,,,,,,,,,,,,
,,X1,SSW-101-02-G-S,,,EngineeringSupportPlatform-eagle-import:SSW-101-02-G-S,EngineeringSupportPlatform:SSW-101-02-G-S,,,,,,,,,,,,
,,X2,SSW-101-02-G-S,,,EngineeringSupportPlatform-eagle-import:SSW-101-02-G-S,EngineeringSupportPlatform:SSW-101-02-G-S,,,,,,,,,,,,
,,X3,SSW-101-02-G-S,,,EngineeringSupportPlatform-eagle-import:SSW-101-02-G-S,EngineeringSupportPlatform:SSW-101-02-G-S,,,,,,,,,,,,
,,X4,SSW-101-02-G-S,,,EngineeringSupportPlatform-eagle-import:SSW-101-02-G-S,EngineeringSupportPlatform:SSW-101-02-G-S,,,,,,,,,,,,
,,X5,SSW-101-02-G-S,,,EngineeringSupportPlatform-eagle-import:SSW-101-02-G-S,EngineeringSupportPlatform:SSW-101-02-G-S,,,,,,,,,,,,
,,X6,SSW-101-02-G-S,,,EngineeringSupportPlatform-eagle-import:SSW-101-02-G-S,EngineeringSupportPlatform:SSW-101-02-G-S,,,,,,,,,,,,
,,X7,SSW-101-02-G-S,,,EngineeringSupportPlatform-eagle-import:SSW-101-02-G-S,EngineeringSupportPlatform:SSW-101-02-G-S,,,,,,,,,,,,
,,X8,SSW-101-02-G-S,,,EngineeringSupportPlatform-eagle-import:SSW-101-02-G-S,EngineeringSupportPlatform:SSW-101-02-G-S,,,,,,,,,,,,
,,X9,SSW-101-02-G-S,,,EngineeringSupportPlatform-eagle-import:SSW-101-02-G-S,EngineeringSupportPlatform:SSW-101-02-G-S,,,,,,,,,,,,
,,X10,SSW-101-02-G-S,,,EngineeringSupportPlatform-eagle-import:SSW-101-02-G-S,EngineeringSupportPlatform:SSW-101-02-G-S,,,,,,,,,,,,
,,X11,SSW-101-02-G-S,,,EngineeringSupportPlatform-eagle-import:SSW-101-02-G-S,EngineeringSupportPlatform:SSW-101-02-G-S,,,,,,,,,,,,
,,X12,SSW-101-02-G-S,,,EngineeringSupportPlatform-eagle-import:SSW-101-02-G-S,EngineeringSupportPlatform:SSW-101-02-G-S,,,,,,,,,,,,
,,X13,SSW-101-02-G-S,,,EngineeringSupportPlatform-eagle-import:SSW-101-02-G-S,EngineeringSupportPlatform:SSW-101-02-G-S,,,,,,,,,,,,
,,X14,SSW-101-02-G-S,,,EngineeringSupportPlatform-eagle-import:SSW-101-02-G-S,EngineeringSupportPlatform:SSW-101-02-G-S,,,,,,,,,,,,
,,X15,SSW-101-02-G-S,,,EngineeringSupportPlatform-eagle-import:SSW-101-02-G-S,EngineeringSupportPlatform:SSW-101-02-G-S,,,,,,,,,,,,
,,X16,SSW-101-02-G-S,,,EngineeringSupportPlatform-eagle-import:SSW-101-02-G-S,EngineeringSupportPlatform:SSW-101-02-G-S,,,,,,,,,,,,
,,X17,SSW-101-02-G-S,,,EngineeringSupportPlatform-eagle-import:SSW-101-02-G-S,EngineeringSupportPlatform:SSW-101-02-G-S,,,,,,,,,,,,
,,X18,SSW-101-02-G-S,,,EngineeringSupportPlatform-eagle-import:SSW-101-02-G-S,EngineeringSupportPlatform:SSW-101-02-G-S,,,,,,,,,,,,
,,X19,SSW-101-02-G-S,,,EngineeringSupportPlatform-eagle-import:SSW-101-02-G-S,EngineeringSupportPlatform:SSW-101-02-G-S,,,,,,,,,,,,
,,X20,SSW-101-02-G-S,,,EngineeringSupportPlatform-eagle-import:SSW-101-02-G-S,EngineeringSupportPlatform:SSW-101-02-G-S,,,,,,,,,,,,
,,X21,SSW-101-02-G-S,,,EngineeringSupportPlatform-eagle-import:SSW-101-02-G-S,EngineeringSupportPlatform:SSW-101-02-G-S,,,,,,,,,,,,
,,X22,SSW-101-02-G-S,,,EngineeringSupportPlatform-eagle-import:SSW-101-02-G-S,EngineeringSupportPlatform:SSW-101-02-G-S,,,,,,,,,,,,
,,X23,SSW-101-02-G-S,,,EngineeringSupportPlatform-eagle-import:SSW-101-02-G-S,EngineeringSupportPlatform:SSW-101-02-G-S,,,,,,,,,,,,
,,X24,SSW-101-02-G-S,,,EngineeringSupportPlatform-eagle-import:SSW-101-02-G-S,EngineeringSupportPlatform:SSW-101-02-G-S,,,,,,,,,,,,
,,X25,SSW-101-02-G-S,,,EngineeringSupportPlatform-eagle-import:SSW-101-02-G-S,EngineeringSupportPlatform:SSW-101-02-G-S,,,,,,,,,,,,
,,X26,SSW-101-02-G-S,,,EngineeringSupportPlatform-eagle-import:SSW-101-02-G-S,EngineeringSupportPlatform:SSW-101-02-G-S,,,,,,,,,,,,
,,X27,SSW-101-02-G-S,,,EngineeringSupportPlatform-eagle-import:SSW-101-02-G-S,EngineeringSupportPlatform:SSW-101-02-G-S,,,,,,,,,,,,
,,X28,SSW-101-02-G-S,,,EngineeringSupportPlatform-eagle-import:SSW-101-02-G-S,EngineeringSupportPlatform:SSW-101-02-G-S,,,,,,,,,,,,
,,X29,SSW-101-02-G-S,,,EngineeringSupportPlatform-eagle-import:SSW-101-02-G-S,EngineeringSupportPlatform:SSW-101-02-G-S,,,,,,,,,,,,
,,X30,SSW-101-02-G-S,,,EngineeringSupportPlatform-eagle-import:SSW-101-02-G-S,EngineeringSupportPlatform:SSW-101-02-G-S,,,,,,,,,,,,
,,X31,SSW-101-02-G-S,,,EngineeringSupportPlatform-eagle-import:SSW-101-02-G-S,EngineeringSupportPlatform:SSW-101-02-G-S,,,,,,,,,,,,
,,X32,SSW-101-02-G-S,,,EngineeringSupportPlatform-eagle-import:SSW-101-02-G-S,EngineeringSupportPlatform:SSW-101-02-G-S,,,,,,,,,,,,
,,X33,SSW-101-02-G-S,,,EngineeringSupportPlatform-eagle-import:SSW-101-02-G-S,EngineeringSupportPlatform:SSW-101-02-G-S,,,,,,,,,,,,
,,X34,SSW-101-02-G-S,,,EngineeringSupportPlatform-eagle-import:SSW-101-02-G-S,EngineeringSupportPlatform:SSW-101-02-G-S,,,,,,,,,,,,
,,X35,SSW-101-02-G-S,,,EngineeringSupportPlatform-eagle-import:SSW-101-02-G-S,EngineeringSupportPlatform:SSW-101-02-G-S,,,,,,,,,,,,
,,X36,SSW-101-02-G-S,,,EngineeringSupportPlatform-eagle-import:SSW-101-02-G-S,EngineeringSupportPlatform:SSW-101-02-G-S,,,,,,,,,,,,
,,X37,SSW-101-02-G-S,,,EngineeringSupportPlatform-eagle-import:SSW-101-02-G-S,EngineeringSupportPlatform:SSW-101-02-G-S,,,,,,,,,,,,
,,X38,SSW-101-02-G-S,,,EngineeringSupportPlatform-eagle-import:SSW-101-02-G-S,EngineeringSupportPlatform:SSW-101-02-G-S,,,,,,,,,,,,
,,X39,SSW-101-02-G-S,,,EngineeringSupportPlatform-eagle-import:SSW-101-02-G-S,EngineeringSupportPlatform:SSW-101-02-G-S,,,,,,,,,,,,
,,X40,SSW-101-02-G-S,,,EngineeringSupportPlatform-eagle-import:SSW-101-02-G-S,EngineeringSupportPlatform:SSW-101-02-G-S,,,,,,,,,,,,
,,X41,SSW-101-02-G-S,,,EngineeringSupportPlatform-eagle-import:SSW-101-02-G-S,EngineeringSupportPlatform:SSW-101-02-G-S,,,,,,,,,,,,
,,X42,SSW-101-02-G-S,,,EngineeringSupportPlatform-eagle-import:SSW-101-02-G-S,EngineeringSupportPlatform:SSW-101-02-G-S,,,,,,,,,,,,
,,X43,SSW-101-02-G-S,,,EngineeringSupportPlatform-eagle-import:SSW-101-02-G-S,EngineeringSupportPlatform:SSW-101-02-G-S,,,,,,,,,,,,
,,X44,SSW-101-02-G-S,,,EngineeringSupportPlatform-eagle-import:SSW-101-02-G-S,EngineeringSupportPlatform:SSW-101-02-G-S,,,,,,,,,,,,
,,X45,SSW-101-02-G-S,,,EngineeringSupportPlatform-eagle-import:SSW-101-02-G-S,EngineeringSupportPlatform:SSW-101-02-G-S,,,,,,,,,,,,
,,X46,SSW-101-02-G-S,,,EngineeringSupportPlatform-eagle-import:SSW-101-02-G-S,EngineeringSupportPlatform:SSW-101-02-G-S,,,,,,,,,,,,
,,X47,SSW-101-02-G-S,,,EngineeringSupportPlatform-eagle-import:SSW-101-02-G-S,EngineeringSupportPlatform:SSW-101-02-G-S,,,,,,,,,,,,
,,X48,SSW-101-02-G-S,,,EngineeringSupportPlatform-eagle-import:SSW-101-02-G-S,EngineeringSupportPlatform:SSW-101-02-G-S,,,,,,,,,,,,
,,X49,SSW-101-02-G-S,,,EngineeringSupportPlatform-eagle-import:SSW-101-02-G-S,EngineeringSupportPlatform:SSW-101-02-G-S,,,,,,,,,,,,
,,X50,SSW-101-02-G-S,,,EngineeringSupportPlatform-eagle-import:SSW-101-02-G-S,EngineeringSupportPlatform:SSW-101-02-G-S,,,,,,,,,,,,
,,X51,SSW-101-02-G-S,,,EngineeringSupportPlatform-eagle-import:SSW-101-02-G-S,EngineeringSupportPlatform:SSW-101-02-G-S,,,,,,,,,,,,
,,X52,SSW-101-02-G-S,,,EngineeringSupportPlatform-eagle-import:SSW-101-02-G-S,EngineeringSupportPlatform:SSW-101-02-G-S,,,,,,,,,,,,
,,X53,SSW-101-02-G-S,,,EngineeringSupportPlatform-eagle-import:SSW-101-02-G-S,EngineeringSupportPlatform:SSW-101-02-G-S,,,,,,,,,,,,
,,X54,SSW-101-02-G-S,,,EngineeringSupportPlatform-eagle-import:SSW-101-02-G-S,EngineeringSupportPlatform:SSW-101-02-G-S,,,,,,,,,,,,
,,X55,SSW-101-02-G-S,,,EngineeringSupportPlatform-eagle-import:SSW-101-02-G-S,EngineeringSupportPlatform:SSW-101-02-G-S,,,,,,,,,,,,
,,X56,SSW-101-02-G-S,,,EngineeringSupportPlatform-eagle-import:SSW-101-02-G-S,EngineeringSupportPlatform:SSW-101-02-G-S,,,,,,,,,,,,
,,X57,SSW-101-02-G-S,,,EngineeringSupportPlatform-eagle-import:SSW-101-02-G-S,EngineeringSupportPlatform:SSW-101-02-G-S,,,,,,,,,,,,
,,X59,SSW-101-02-G-S,,,EngineeringSupportPlatform-eagle-import:SSW-101-02-G-S,EngineeringSupportPlatform:SSW-101-02-G-S,,,,,,,,,,,,
,,X60,SSW-101-02-G-S,,,EngineeringSupportPlatform-eagle-import:SSW-101-02-G-S,EngineeringSupportPlatform:SSW-101-02-G-S,,,,,,,,,,,,
,,X61,SSW-101-02-G-S,,,EngineeringSupportPlatform-eagle-import:SSW-101-02-G-S,EngineeringSupportPlatform:SSW-101-02-G-S,,,,,,,,,,,,
,,X62,SSW-101-02-G-S,,,EngineeringSupportPlatform-eagle-import:SSW-101-02-G-S,EngineeringSupportPlatform:SSW-101-02-G-S,,,,,,,,,,,,
,,X63,SSW-101-02-G-S,,,EngineeringSupportPlatform-eagle-import:SSW-101-02-G-S,EngineeringSupportPlatform:SSW-101-02-G-S,,,,,,,,,,,,
,,X64,SSW-101-02-G-S,,,EngineeringSupportPlatform-eagle-import:SSW-101-02-G-S,EngineeringSupportPlatform:SSW-101-02-G-S,,,,,,,,,,,,
,,X67,SSW-101-02-G-S,,,EngineeringSupportPlatform-eagle-import:SSW-101-02-G-S,EngineeringSupportPlatform:SSW-101-02-G-S,,,,,,,,,,,,
,,X68,SSW-101-02-G-S,,,EngineeringSupportPlatform-eagle-import:SSW-101-02-G-S,EngineeringSupportPlatform:SSW-101-02-G-S,,,,,,,,,,,,
,,X69,SSW-101-02-G-S,,,EngineeringSupportPlatform-eagle-import:SSW-101-02-G-S,EngineeringSupportPlatform:SSW-101-02-G-S,,,,,,,,,,,,
,,X70,SSW-101-02-G-S,,,EngineeringSupportPlatform-eagle-import:SSW-101-02-G-S,EngineeringSupportPlatform:SSW-101-02-G-S,,,,,,,,,,,,
,,X71,SSW-101-02-G-S,,,EngineeringSupportPlatform-eagle-import:SSW-101-02-G-S,EngineeringSupportPlatform:SSW-101-02-G-S,,,,,,,,,,,,
,,X72,SSW-101-02-G-S,,,EngineeringSupportPlatform-eagle-import:SSW-101-02-G-S,EngineeringSupportPlatform:SSW-101-02-G-S,,,,,,,,,,,,
,,X73,SSW-101-02-G-S,,,EngineeringSupportPlatform-eagle-import:SSW-101-02-G-S,EngineeringSupportPlatform:SSW-101-02-G-S,,,,,,,,,,,,
,,X74,SSW-101-02-G-S,,,EngineeringSupportPlatform-eagle-import:SSW-101-02-G-S,EngineeringSupportPlatform:SSW-101-02-G-S,,,,,,,,,,,,
,,X75,SSW-101-02-G-S,,,EngineeringSupportPlatform-eagle-import:SSW-101-02-G-S,EngineeringSupportPlatform:SSW-101-02-G-S,,,,,,,,,,,,
,,X76,SSW-101-02-G-S,,,EngineeringSupportPlatform-eagle-import:SSW-101-02-G-S,EngineeringSupportPlatform:SSW-101-02-G-S,,,,,,,,,,,,
,,X77,SSW-101-02-G-S,,,EngineeringSupportPlatform-eagle-import:SSW-101-02-G-S,EngineeringSupportPlatform:SSW-101-02-G-S,,,,,,,,,,,,
,,X78,SSW-101-02-G-S,,,EngineeringSupportPlatform-eagle-import:SSW-101-02-G-S,EngineeringSupportPlatform:SSW-101-02-G-S,,,,,,,,,,,,
,,X79,SSW-101-02-G-S,,,EngineeringSupportPlatform-eagle-import:SSW-101-02-G-S,EngineeringSupportPlatform:SSW-101-02-G-S,,,,,,,,,,,,
,,X80,SSW-101-02-G-S,,,EngineeringSupportPlatform-eagle-import:SSW-101-02-G-S,EngineeringSupportPlatform:SSW-101-02-G-S,,,,,,,,,,,,
,,X81,SSW-101-02-G-S,,,EngineeringSupportPlatform-eagle-import:SSW-101-02-G-S,EngineeringSupportPlatform:SSW-101-02-G-S,,,,,,,,,,,,
,,X82,SSW-101-02-G-S,,,EngineeringSupportPlatform-eagle-import:SSW-101-02-G-S,EngineeringSupportPlatform:SSW-101-02-G-S,,,,,,,,,,,,
,,X86,SSW-101-02-G-S,,,EngineeringSupportPlatform-eagle-import:SSW-101-02-G-S,EngineeringSupportPlatform:SSW-101-02-G-S,,,,,,,,,,,,
,,X87,SSW-101-02-G-S,,,EngineeringSupportPlatform-eagle-import:SSW-101-02-G-S,EngineeringSupportPlatform:SSW-101-02-G-S,,,,,,,,,,,,
,,X88,SSW-101-02-G-S,,,EngineeringSupportPlatform-eagle-import:SSW-101-02-G-S,EngineeringSupportPlatform:SSW-101-02-G-S,,,,,,,,,,,,
,,X89,SSW-101-02-G-S,,,EngineeringSupportPlatform-eagle-import:SSW-101-02-G-S,EngineeringSupportPlatform:SSW-101-02-G-S,,,,,,,,,,,,
,,X91,SSW-101-02-G-S,,,EngineeringSupportPlatform-eagle-import:SSW-101-02-G-S,EngineeringSupportPlatform:SSW-101-02-G-S,,,,,,,,,,,,
,,,,,,,,,,,,,,,,,,,
,,,,,,,,,,,,,,,,,,,
,,,,,,,,,,,,,,,,,,,
Collated Components:,,,,,,,,,,,,,,,,,,,
,,,,,,,,,,,,,,,,,,,
Item,Qty,Reference(s),Value,Manufacturer,Manufacturer Part Number,LibPart,Footprint,Datasheet,Category,DK_Datasheet_Link,DK_Detail_Page,Description,Digi-Key_PN,FUNCTION,Family,Field4,MPN,Manufacturer,Status
1,2,"C1, C3",0.1uF,AVX Corporation,08055C104K4T2A?,EngineeringSupportPlatform-eagle-import:C-USC0805K,EngineeringSupportPlatform:C0805K,,,,,,,,,,,,
2,1,C2,10uF,Kemet,T496D106K025ATE1K2,EngineeringSupportPlatform-eagle-import:C-USC0805K,EngineeringSupportPlatform:C0805K,,,,,,,,,,,,
3,1,J1,1-284061-2,TE Connectivity,1-284061-2?,EngineeringSupportPlatform-eagle-import:1-284061-2,EngineeringSupportPlatform:CONN24_1-284061-2,,,,,,,,,,,,
4,2,"J2,3",ENET,TE Connectivity,1705951-1?,EngineeringSupportPlatform-eagle-import:RJ45-8,EngineeringSupportPlatform:RJ45-8,,,,,,,TO BULLET,,,,,
6,2,"J4, J5",CONN_02PTH4,Molex,0444720254?,SparkFun-Connectors:CONN_02PTH4,Connector_Molex:Molex_Mini-Fit_Jr_5566-02A_2x01_P4.20mm_Vertical,,,,,,,,,XXX-00000,,,
7,2,"J8, J9",5536501-4,TE Connectivity,5536501-4,EngineeringSupportPlatform-eagle-import:5536501-4,EngineeringSupportPlatform:CONN_5536501-4_TYC,,,,,,,,,,,,
8,6,J10 - J15,178-009-513R571,NorComp Inc.,178-009-513R571,EngineeringSupportPlatform-eagle-import:178-009-513R571,EngineeringSupportPlatform:CONN_178-009-513R571_NRC,,,,,,,,,,,,
9,4,"R1, R2, R3, R4",10R,Stackpole Electronics,RNCS0805BKE10R0,EngineeringSupportPlatform-eagle-import:R-US_R0805,EngineeringSupportPlatform:R0805,,,,,,,,,,,,
10,1,R5,0R,,,EngineeringSupportPlatform-eagle-import:R-US_R0805,EngineeringSupportPlatform:R0805,,,,,,,,,,,,
11,3,"R6, R7, R8",TBD,,,EngineeringSupportPlatform-eagle-import:R-US_R0805,EngineeringSupportPlatform:R0805,,,,,,,,,,,,
12,16,R9 - R24,4K7,Yageo,RC0805FR-104K7L,SparkFun-Resistors:RESISTOR0805,EngineeringSupportPlatform:R0805,,,,,,,,,,,,
13,4,"T1, T2, T3, T4",SUPRESSOR_TVS-UD-SMAJ,Littlefuse,SMAJ400CA,EngineeringSupportPlatform-eagle-import:SUPRESSOR_TVS-UD-SMAJ,EngineeringSupportPlatform:SUPRESSOR_SMAJ,,,,,,,,,,,,
14,7,TP1 - TP7,Test Points,Keystone,5001,,,,,,,,,,,,,,
15,1,U1,MAX490CSA+,Maxim Integrated,MAX490CSA+? ,EngineeringSupportPlatform-eagle-import:MAX490CSA+,EngineeringSupportPlatform:21-0041B_8_MXM,,,,,,,,,,,,
16,1,U2,MAX3235ECWP+G36,Maxim Integrated,MAX3235EEWP+G36?,EngineeringSupportPlatform-eagle-import:MAX3235ECWP+G36,EngineeringSupportPlatform:21-0042B_20_MXM,,,,,,,,,,,,
17,3,"U3, U4, U5",G6K-2P_DC12,Omron Electronics,G6K-2P DC12?,Omron:G6K-2P_DC24,Footprint:Omron_G6K-2P-DC24,,,,,,,,,,,,
18,8,U6 - U13,LTST-C155-dgi2,Lite-On Inc. ,LTST-C155GEKT? ,rescue:LTST-C155-dgi2,LED_SMD:LED_LiteOn_LTST-C19HE1WT,,,,,,,,,,,,
19,84,X1 - X91,SSW-101-02-G-S,Samtec,SSA-132-S-G?,EngineeringSupportPlatform-eagle-import:SSW-101-02-G-S,EngineeringSupportPlatform:SSW-101-02-G-S,,,,,,,,,,,,
