%TF.GenerationSoftware,KiCad,Pcbnew,(5.1.10)-1*%
%TF.CreationDate,2021-08-22T18:56:45-04:00*%
%TF.ProjectId,EngineeringSupportPlatform,456e6769-6e65-4657-9269-6e6753757070,rev?*%
%TF.SameCoordinates,Original*%
%TF.FileFunction,Soldermask,Bot*%
%TF.FilePolarity,Negative*%
%FSLAX46Y46*%
G04 Gerber Fmt 4.6, Leading zero omitted, Abs format (unit mm)*
G04 Created by KiCad (PCBNEW (5.1.10)-1) date 2021-08-22 18:56:45*
%MOMM*%
%LPD*%
G01*
G04 APERTURE LIST*
%ADD10O,2.700000X3.300000*%
%ADD11C,2.020000*%
%ADD12C,1.346200*%
%ADD13C,1.703200*%
%ADD14C,1.854200*%
%ADD15C,1.600200*%
%ADD16C,3.759200*%
%ADD17C,1.905000*%
%ADD18C,2.235200*%
%ADD19C,3.200000*%
%ADD20C,2.082800*%
G04 APERTURE END LIST*
D10*
%TO.C,J5*%
X283972000Y-181776000D03*
G36*
G01*
X282622000Y-177675999D02*
X282622000Y-174876001D01*
G75*
G02*
X282872001Y-174626000I250001J0D01*
G01*
X285071999Y-174626000D01*
G75*
G02*
X285322000Y-174876001I0J-250001D01*
G01*
X285322000Y-177675999D01*
G75*
G02*
X285071999Y-177926000I-250001J0D01*
G01*
X282872001Y-177926000D01*
G75*
G02*
X282622000Y-177675999I0J250001D01*
G01*
G37*
%TD*%
%TO.C,J4*%
X128270000Y-176110000D03*
G36*
G01*
X129620000Y-180210001D02*
X129620000Y-183009999D01*
G75*
G02*
X129369999Y-183260000I-250001J0D01*
G01*
X127170001Y-183260000D01*
G75*
G02*
X126920000Y-183009999I0J250001D01*
G01*
X126920000Y-180210001D01*
G75*
G02*
X127170001Y-179960000I250001J0D01*
G01*
X129369999Y-179960000D01*
G75*
G02*
X129620000Y-180210001I0J-250001D01*
G01*
G37*
%TD*%
D11*
%TO.C,TP7*%
X306070000Y-179578000D03*
%TD*%
%TO.C,TP6*%
X305816000Y-176022000D03*
%TD*%
%TO.C,TP5*%
X302514000Y-179578000D03*
%TD*%
%TO.C,TP4*%
X309372000Y-179578000D03*
%TD*%
%TO.C,TP3*%
X302514000Y-176022000D03*
%TD*%
%TO.C,TP1*%
X312674000Y-179578000D03*
%TD*%
%TO.C,TP2*%
X315976000Y-179578000D03*
%TD*%
D12*
%TO.C,U5*%
X103124000Y-85090000D03*
X103124000Y-87630000D03*
X103124000Y-90170000D03*
X103124000Y-92710000D03*
X98044000Y-92710000D03*
X98044000Y-90170000D03*
X98044000Y-87630000D03*
X98044000Y-85090000D03*
%TD*%
%TO.C,U4*%
X113030000Y-85090000D03*
X113030000Y-87630000D03*
X113030000Y-90170000D03*
X113030000Y-92710000D03*
X107950000Y-92710000D03*
X107950000Y-90170000D03*
X107950000Y-87630000D03*
X107950000Y-85090000D03*
%TD*%
%TO.C,U3*%
X93472000Y-85090000D03*
X93472000Y-87630000D03*
X93472000Y-90170000D03*
X93472000Y-92710000D03*
X88392000Y-92710000D03*
X88392000Y-90170000D03*
X88392000Y-87630000D03*
X88392000Y-85090000D03*
%TD*%
D13*
%TO.C,X8*%
X242062000Y-97282000D03*
%TD*%
D14*
%TO.C,J9*%
X278142700Y-87985600D03*
X266153900Y-181965600D03*
D15*
X276161500Y-87960200D03*
X276161500Y-89966800D03*
X276161500Y-91973400D03*
X276161500Y-93954600D03*
X276161500Y-95961200D03*
X276161500Y-97967800D03*
X276161500Y-99974400D03*
X276161500Y-101955600D03*
X276161500Y-103962200D03*
X276161500Y-105968800D03*
X276161500Y-107975400D03*
X276161500Y-109956600D03*
X276161500Y-111963200D03*
X276161500Y-113969800D03*
X276161500Y-115976400D03*
X276161500Y-117957600D03*
X276161500Y-119964200D03*
X276161500Y-121970800D03*
X276161500Y-123977400D03*
X276161500Y-125958600D03*
X276161500Y-127965200D03*
X276161500Y-129971800D03*
X276161500Y-131953000D03*
X276161500Y-133959600D03*
X276161500Y-135966200D03*
X276161500Y-137972800D03*
X276161500Y-139954000D03*
X276161500Y-141960600D03*
X276161500Y-143967200D03*
X276161500Y-145973800D03*
X276161500Y-147955000D03*
X276161500Y-149961600D03*
X276161500Y-151968200D03*
X276161500Y-153974800D03*
X276161500Y-155956000D03*
X276161500Y-157962600D03*
X276161500Y-159969200D03*
X276161500Y-161975800D03*
X276161500Y-163957000D03*
X276161500Y-165963600D03*
X276161500Y-167970200D03*
X276161500Y-169976800D03*
X276161500Y-171958000D03*
X276161500Y-173964600D03*
X276161500Y-175971200D03*
X276161500Y-177977800D03*
X276161500Y-179959000D03*
X276161500Y-181965600D03*
X274154900Y-87960200D03*
X274154900Y-89966800D03*
X274154900Y-91973400D03*
X274154900Y-93954600D03*
X274154900Y-95961200D03*
X274154900Y-97967800D03*
X274154900Y-99974400D03*
X274154900Y-101955600D03*
X274154900Y-103962200D03*
X274154900Y-105968800D03*
X274154900Y-107975400D03*
X274154900Y-109956600D03*
X274154900Y-111963200D03*
X274154900Y-113969800D03*
X274154900Y-115976400D03*
X274154900Y-117957600D03*
X274154900Y-119964200D03*
X274154900Y-121970800D03*
X274154900Y-123977400D03*
X274154900Y-125958600D03*
X274154900Y-127965200D03*
X274154900Y-129971800D03*
X274154900Y-131953000D03*
X274154900Y-133959600D03*
X274154900Y-135966200D03*
X274154900Y-137972800D03*
X274154900Y-139954000D03*
X274154900Y-141960600D03*
X274154900Y-143967200D03*
X274154900Y-145973800D03*
X274154900Y-147955000D03*
X274154900Y-149961600D03*
X274154900Y-151968200D03*
X274154900Y-153974800D03*
X274154900Y-155956000D03*
X274154900Y-157962600D03*
X274154900Y-159969200D03*
X274154900Y-161975800D03*
X274154900Y-163957000D03*
X274154900Y-165963600D03*
X274154900Y-167970200D03*
X274154900Y-169976800D03*
X274154900Y-171958000D03*
X274154900Y-173964600D03*
X274154900Y-175971200D03*
X274154900Y-177977800D03*
X274154900Y-179959000D03*
X274154900Y-181965600D03*
X272173700Y-87960200D03*
X272173700Y-89966800D03*
X272173700Y-91973400D03*
X272173700Y-93954600D03*
X272173700Y-95961200D03*
X272173700Y-97967800D03*
X272173700Y-99974400D03*
X272173700Y-101955600D03*
X272173700Y-103962200D03*
X272173700Y-105968800D03*
X272173700Y-107975400D03*
X272173700Y-109956600D03*
X272173700Y-111963200D03*
X272173700Y-113969800D03*
X272173700Y-115976400D03*
X272173700Y-117957600D03*
X272173700Y-119964200D03*
X272173700Y-121970800D03*
X272173700Y-123977400D03*
X272173700Y-125958600D03*
X272173700Y-127965200D03*
X272173700Y-129971800D03*
X272173700Y-131953000D03*
X272173700Y-133959600D03*
X272173700Y-135966200D03*
X272173700Y-137972800D03*
X272173700Y-139954000D03*
X272173700Y-141960600D03*
X272173700Y-143967200D03*
X272173700Y-145973800D03*
X272173700Y-147955000D03*
X272173700Y-149961600D03*
X272173700Y-151968200D03*
X272173700Y-153974800D03*
X272173700Y-155956000D03*
X272173700Y-157962600D03*
X272173700Y-159969200D03*
X272173700Y-161975800D03*
X272173700Y-163957000D03*
X272173700Y-165963600D03*
X272173700Y-167970200D03*
X272173700Y-169976800D03*
X272173700Y-171958000D03*
X272173700Y-173964600D03*
X272173700Y-175971200D03*
X272173700Y-177977800D03*
X272173700Y-179959000D03*
X272173700Y-181965600D03*
X270167100Y-87960200D03*
X270167100Y-89966800D03*
X270167100Y-91973400D03*
X270167100Y-93954600D03*
X270167100Y-95961200D03*
X270167100Y-97967800D03*
X270167100Y-99974400D03*
X270167100Y-101955600D03*
X270167100Y-103962200D03*
X270167100Y-105968800D03*
X270167100Y-107975400D03*
X270167100Y-109956600D03*
X270167100Y-111963200D03*
X270167100Y-113969800D03*
X270167100Y-115976400D03*
X270167100Y-117957600D03*
X270167100Y-119964200D03*
X270167100Y-121970800D03*
X270167100Y-123977400D03*
X270167100Y-125958600D03*
X270167100Y-127965200D03*
X270167100Y-129971800D03*
X270167100Y-131953000D03*
X270167100Y-133959600D03*
X270167100Y-135966200D03*
X270167100Y-137972800D03*
X270167100Y-139954000D03*
X270167100Y-141960600D03*
X270167100Y-143967200D03*
X270167100Y-145973800D03*
X270167100Y-147955000D03*
X270167100Y-149961600D03*
X270167100Y-151968200D03*
X270167100Y-153974800D03*
X270167100Y-155956000D03*
X270167100Y-157962600D03*
X270167100Y-159969200D03*
X270167100Y-161975800D03*
X270167100Y-163957000D03*
X270167100Y-165963600D03*
X270167100Y-167970200D03*
X270167100Y-169976800D03*
X270167100Y-171958000D03*
X270167100Y-173964600D03*
X270167100Y-175971200D03*
X270167100Y-177977800D03*
X270167100Y-179959000D03*
X270167100Y-181965600D03*
%TD*%
D16*
%TO.C,J11*%
X254520700Y-171881800D03*
X229527100Y-171881800D03*
X254520700Y-179882800D03*
X229527100Y-179882800D03*
D17*
X236486700Y-177038000D03*
X237858300Y-179882800D03*
X239255300Y-177038000D03*
X240652300Y-179882800D03*
X242023900Y-177038000D03*
X243395500Y-179882800D03*
X244792500Y-177038000D03*
X246189500Y-179882800D03*
X247561100Y-177038000D03*
X236486700Y-170281600D03*
X237858300Y-173126400D03*
X239255300Y-170281600D03*
X240652300Y-173126400D03*
X242023900Y-170281600D03*
X243395500Y-173126400D03*
X244792500Y-170281600D03*
X246189500Y-173126400D03*
X247561100Y-170281600D03*
%TD*%
D13*
%TO.C,X48*%
X130302000Y-65278000D03*
%TD*%
%TO.C,X91*%
X259080000Y-97282000D03*
%TD*%
%TO.C,X89*%
X209550000Y-86868000D03*
%TD*%
%TO.C,X88*%
X196088000Y-84582000D03*
%TD*%
%TO.C,X87*%
X196088000Y-87122000D03*
%TD*%
%TO.C,X86*%
X177038000Y-84582000D03*
%TD*%
%TO.C,X27*%
X177038000Y-87122000D03*
%TD*%
D16*
%TO.C,J15*%
X240601500Y-75971400D03*
X265595100Y-75971400D03*
X240601500Y-67970400D03*
X265595100Y-67970400D03*
D17*
X258635500Y-70815200D03*
X257263900Y-67970400D03*
X255866900Y-70815200D03*
X254469900Y-67970400D03*
X253098300Y-70815200D03*
X251726700Y-67970400D03*
X250329700Y-70815200D03*
X248932700Y-67970400D03*
X247561100Y-70815200D03*
X258635500Y-77571600D03*
X257263900Y-74726800D03*
X255866900Y-77571600D03*
X254469900Y-74726800D03*
X253098300Y-77571600D03*
X251726700Y-74726800D03*
X250329700Y-77571600D03*
X248932700Y-74726800D03*
X247561100Y-77571600D03*
%TD*%
D16*
%TO.C,J13*%
X207581500Y-75971400D03*
X232575100Y-75971400D03*
X207581500Y-67970400D03*
X232575100Y-67970400D03*
D17*
X225615500Y-70815200D03*
X224243900Y-67970400D03*
X222846900Y-70815200D03*
X221449900Y-67970400D03*
X220078300Y-70815200D03*
X218706700Y-67970400D03*
X217309700Y-70815200D03*
X215912700Y-67970400D03*
X214541100Y-70815200D03*
X225615500Y-77571600D03*
X224243900Y-74726800D03*
X222846900Y-77571600D03*
X221449900Y-74726800D03*
X220078300Y-77571600D03*
X218706700Y-74726800D03*
X217309700Y-77571600D03*
X215912700Y-74726800D03*
X214541100Y-77571600D03*
%TD*%
D16*
%TO.C,J10*%
X186537600Y-172034200D03*
X161544000Y-172034200D03*
X186537600Y-180035200D03*
X161544000Y-180035200D03*
D17*
X168503600Y-177190400D03*
X169875200Y-180035200D03*
X171272200Y-177190400D03*
X172669200Y-180035200D03*
X174040800Y-177190400D03*
X175412400Y-180035200D03*
X176809400Y-177190400D03*
X178206400Y-180035200D03*
X179578000Y-177190400D03*
X168503600Y-170434000D03*
X169875200Y-173278800D03*
X171272200Y-170434000D03*
X172669200Y-173278800D03*
X174040800Y-170434000D03*
X175412400Y-173278800D03*
X176809400Y-170434000D03*
X178206400Y-173278800D03*
X179578000Y-170434000D03*
%TD*%
D14*
%TO.C,J8*%
X148437600Y-88392000D03*
X136448800Y-182372000D03*
D15*
X146456400Y-88366600D03*
X146456400Y-90373200D03*
X146456400Y-92379800D03*
X146456400Y-94361000D03*
X146456400Y-96367600D03*
X146456400Y-98374200D03*
X146456400Y-100380800D03*
X146456400Y-102362000D03*
X146456400Y-104368600D03*
X146456400Y-106375200D03*
X146456400Y-108381800D03*
X146456400Y-110363000D03*
X146456400Y-112369600D03*
X146456400Y-114376200D03*
X146456400Y-116382800D03*
X146456400Y-118364000D03*
X146456400Y-120370600D03*
X146456400Y-122377200D03*
X146456400Y-124383800D03*
X146456400Y-126365000D03*
X146456400Y-128371600D03*
X146456400Y-130378200D03*
X146456400Y-132359400D03*
X146456400Y-134366000D03*
X146456400Y-136372600D03*
X146456400Y-138379200D03*
X146456400Y-140360400D03*
X146456400Y-142367000D03*
X146456400Y-144373600D03*
X146456400Y-146380200D03*
X146456400Y-148361400D03*
X146456400Y-150368000D03*
X146456400Y-152374600D03*
X146456400Y-154381200D03*
X146456400Y-156362400D03*
X146456400Y-158369000D03*
X146456400Y-160375600D03*
X146456400Y-162382200D03*
X146456400Y-164363400D03*
X146456400Y-166370000D03*
X146456400Y-168376600D03*
X146456400Y-170383200D03*
X146456400Y-172364400D03*
X146456400Y-174371000D03*
X146456400Y-176377600D03*
X146456400Y-178384200D03*
X146456400Y-180365400D03*
X146456400Y-182372000D03*
X144449800Y-88366600D03*
X144449800Y-90373200D03*
X144449800Y-92379800D03*
X144449800Y-94361000D03*
X144449800Y-96367600D03*
X144449800Y-98374200D03*
X144449800Y-100380800D03*
X144449800Y-102362000D03*
X144449800Y-104368600D03*
X144449800Y-106375200D03*
X144449800Y-108381800D03*
X144449800Y-110363000D03*
X144449800Y-112369600D03*
X144449800Y-114376200D03*
X144449800Y-116382800D03*
X144449800Y-118364000D03*
X144449800Y-120370600D03*
X144449800Y-122377200D03*
X144449800Y-124383800D03*
X144449800Y-126365000D03*
X144449800Y-128371600D03*
X144449800Y-130378200D03*
X144449800Y-132359400D03*
X144449800Y-134366000D03*
X144449800Y-136372600D03*
X144449800Y-138379200D03*
X144449800Y-140360400D03*
X144449800Y-142367000D03*
X144449800Y-144373600D03*
X144449800Y-146380200D03*
X144449800Y-148361400D03*
X144449800Y-150368000D03*
X144449800Y-152374600D03*
X144449800Y-154381200D03*
X144449800Y-156362400D03*
X144449800Y-158369000D03*
X144449800Y-160375600D03*
X144449800Y-162382200D03*
X144449800Y-164363400D03*
X144449800Y-166370000D03*
X144449800Y-168376600D03*
X144449800Y-170383200D03*
X144449800Y-172364400D03*
X144449800Y-174371000D03*
X144449800Y-176377600D03*
X144449800Y-178384200D03*
X144449800Y-180365400D03*
X144449800Y-182372000D03*
X142468600Y-88366600D03*
X142468600Y-90373200D03*
X142468600Y-92379800D03*
X142468600Y-94361000D03*
X142468600Y-96367600D03*
X142468600Y-98374200D03*
X142468600Y-100380800D03*
X142468600Y-102362000D03*
X142468600Y-104368600D03*
X142468600Y-106375200D03*
X142468600Y-108381800D03*
X142468600Y-110363000D03*
X142468600Y-112369600D03*
X142468600Y-114376200D03*
X142468600Y-116382800D03*
X142468600Y-118364000D03*
X142468600Y-120370600D03*
X142468600Y-122377200D03*
X142468600Y-124383800D03*
X142468600Y-126365000D03*
X142468600Y-128371600D03*
X142468600Y-130378200D03*
X142468600Y-132359400D03*
X142468600Y-134366000D03*
X142468600Y-136372600D03*
X142468600Y-138379200D03*
X142468600Y-140360400D03*
X142468600Y-142367000D03*
X142468600Y-144373600D03*
X142468600Y-146380200D03*
X142468600Y-148361400D03*
X142468600Y-150368000D03*
X142468600Y-152374600D03*
X142468600Y-154381200D03*
X142468600Y-156362400D03*
X142468600Y-158369000D03*
X142468600Y-160375600D03*
X142468600Y-162382200D03*
X142468600Y-164363400D03*
X142468600Y-166370000D03*
X142468600Y-168376600D03*
X142468600Y-170383200D03*
X142468600Y-172364400D03*
X142468600Y-174371000D03*
X142468600Y-176377600D03*
X142468600Y-178384200D03*
X142468600Y-180365400D03*
X142468600Y-182372000D03*
X140462000Y-88366600D03*
X140462000Y-90373200D03*
X140462000Y-92379800D03*
X140462000Y-94361000D03*
X140462000Y-96367600D03*
X140462000Y-98374200D03*
X140462000Y-100380800D03*
X140462000Y-102362000D03*
X140462000Y-104368600D03*
X140462000Y-106375200D03*
X140462000Y-108381800D03*
X140462000Y-110363000D03*
X140462000Y-112369600D03*
X140462000Y-114376200D03*
X140462000Y-116382800D03*
X140462000Y-118364000D03*
X140462000Y-120370600D03*
X140462000Y-122377200D03*
X140462000Y-124383800D03*
X140462000Y-126365000D03*
X140462000Y-128371600D03*
X140462000Y-130378200D03*
X140462000Y-132359400D03*
X140462000Y-134366000D03*
X140462000Y-136372600D03*
X140462000Y-138379200D03*
X140462000Y-140360400D03*
X140462000Y-142367000D03*
X140462000Y-144373600D03*
X140462000Y-146380200D03*
X140462000Y-148361400D03*
X140462000Y-150368000D03*
X140462000Y-152374600D03*
X140462000Y-154381200D03*
X140462000Y-156362400D03*
X140462000Y-158369000D03*
X140462000Y-160375600D03*
X140462000Y-162382200D03*
X140462000Y-164363400D03*
X140462000Y-166370000D03*
X140462000Y-168376600D03*
X140462000Y-170383200D03*
X140462000Y-172364400D03*
X140462000Y-174371000D03*
X140462000Y-176377600D03*
X140462000Y-178384200D03*
X140462000Y-180365400D03*
X140462000Y-182372000D03*
%TD*%
D13*
%TO.C,X19*%
X253492000Y-142494000D03*
%TD*%
%TO.C,X18*%
X253492000Y-145034000D03*
%TD*%
%TO.C,X16*%
X231140000Y-142494000D03*
%TD*%
%TO.C,X5*%
X231140000Y-145034000D03*
%TD*%
D16*
%TO.C,J12*%
X174561500Y-75971400D03*
X199555100Y-75971400D03*
X174561500Y-67970400D03*
X199555100Y-67970400D03*
D17*
X192595500Y-70815200D03*
X191223900Y-67970400D03*
X189826900Y-70815200D03*
X188429900Y-67970400D03*
X187058300Y-70815200D03*
X185686700Y-67970400D03*
X184289700Y-70815200D03*
X182892700Y-67970400D03*
X181521100Y-70815200D03*
X192595500Y-77571600D03*
X191223900Y-74726800D03*
X189826900Y-77571600D03*
X188429900Y-74726800D03*
X187058300Y-77571600D03*
X185686700Y-74726800D03*
X184289700Y-77571600D03*
X182892700Y-74726800D03*
X181521100Y-77571600D03*
%TD*%
D16*
%TO.C,J14*%
X220827600Y-172034200D03*
X195834000Y-172034200D03*
X220827600Y-180035200D03*
X195834000Y-180035200D03*
D17*
X202793600Y-177190400D03*
X204165200Y-180035200D03*
X205562200Y-177190400D03*
X206959200Y-180035200D03*
X208330800Y-177190400D03*
X209702400Y-180035200D03*
X211099400Y-177190400D03*
X212496400Y-180035200D03*
X213868000Y-177190400D03*
X202793600Y-170434000D03*
X204165200Y-173278800D03*
X205562200Y-170434000D03*
X206959200Y-173278800D03*
X208330800Y-170434000D03*
X209702400Y-173278800D03*
X211099400Y-170434000D03*
X212496400Y-173278800D03*
X213868000Y-170434000D03*
%TD*%
D18*
%TO.C,J1*%
X313093100Y-108305600D03*
X323253100Y-105765600D03*
X313093100Y-113385600D03*
X323253100Y-110845600D03*
X313093100Y-118465600D03*
X323253100Y-115925600D03*
X313093100Y-123545600D03*
X323253100Y-121005600D03*
X313093100Y-128625600D03*
X323253100Y-126085600D03*
X313093100Y-133705600D03*
X323253100Y-131165600D03*
X313093100Y-138785600D03*
X323253100Y-136245600D03*
X313093100Y-143865600D03*
X323253100Y-141325600D03*
X313093100Y-148945600D03*
X323253100Y-146405600D03*
X313093100Y-154025600D03*
X323253100Y-151485600D03*
X313093100Y-159105600D03*
X323253100Y-156565600D03*
X313093100Y-164185600D03*
X323253100Y-161645600D03*
%TD*%
D19*
%TO.C,J2*%
X135166100Y-64871600D03*
X146596100Y-64871600D03*
G36*
G01*
X146367500Y-70281800D02*
X146367500Y-72161400D01*
G75*
G02*
X146265900Y-72263000I-101600J0D01*
G01*
X144386300Y-72263000D01*
G75*
G02*
X144284700Y-72161400I0J101600D01*
G01*
X144284700Y-70281800D01*
G75*
G02*
X144386300Y-70180200I101600J0D01*
G01*
X146265900Y-70180200D01*
G75*
G02*
X146367500Y-70281800I0J-101600D01*
G01*
G37*
D20*
X142786100Y-71221600D03*
X140246100Y-71221600D03*
X144056100Y-73761600D03*
X141516100Y-73761600D03*
X138976100Y-73761600D03*
X137706100Y-71221600D03*
X136436100Y-73761600D03*
%TD*%
D19*
%TO.C,J3*%
X152946100Y-64871600D03*
X164376100Y-64871600D03*
G36*
G01*
X164147500Y-70281800D02*
X164147500Y-72161400D01*
G75*
G02*
X164045900Y-72263000I-101600J0D01*
G01*
X162166300Y-72263000D01*
G75*
G02*
X162064700Y-72161400I0J101600D01*
G01*
X162064700Y-70281800D01*
G75*
G02*
X162166300Y-70180200I101600J0D01*
G01*
X164045900Y-70180200D01*
G75*
G02*
X164147500Y-70281800I0J-101600D01*
G01*
G37*
D20*
X160566100Y-71221600D03*
X158026100Y-71221600D03*
X161836100Y-73761600D03*
X159296100Y-73761600D03*
X156756100Y-73761600D03*
X155486100Y-71221600D03*
X154216100Y-73761600D03*
%TD*%
D13*
%TO.C,X1*%
X129032000Y-92456000D03*
%TD*%
%TO.C,X2*%
X151892000Y-93218000D03*
%TD*%
%TO.C,X3*%
X229616000Y-102362000D03*
%TD*%
%TO.C,X4*%
X259080000Y-104902000D03*
%TD*%
%TO.C,X6*%
X119888000Y-62992000D03*
%TD*%
%TO.C,X7*%
X259080000Y-107442000D03*
%TD*%
%TO.C,X9*%
X242062000Y-89662000D03*
%TD*%
%TO.C,X10*%
X242062000Y-104902000D03*
%TD*%
%TO.C,X11*%
X242062000Y-107442000D03*
%TD*%
%TO.C,X12*%
X259080000Y-109982000D03*
%TD*%
%TO.C,X13*%
X229616000Y-99822000D03*
%TD*%
%TO.C,X14*%
X242062000Y-109982000D03*
%TD*%
%TO.C,X15*%
X229616000Y-89408000D03*
%TD*%
%TO.C,X17*%
X209550000Y-99568000D03*
%TD*%
%TO.C,X20*%
X107188000Y-62992000D03*
%TD*%
%TO.C,X21*%
X130302000Y-67818000D03*
%TD*%
%TO.C,X22*%
X122428000Y-62992000D03*
%TD*%
%TO.C,X23*%
X126492000Y-92456000D03*
%TD*%
%TO.C,X24*%
X259080000Y-84582000D03*
%TD*%
%TO.C,X25*%
X259080000Y-87122000D03*
%TD*%
%TO.C,X26*%
X259080000Y-89662000D03*
%TD*%
%TO.C,X28*%
X259080000Y-92202000D03*
%TD*%
%TO.C,X29*%
X259080000Y-102362000D03*
%TD*%
%TO.C,X30*%
X242062000Y-84582000D03*
%TD*%
%TO.C,X31*%
X242062000Y-87122000D03*
%TD*%
%TO.C,X32*%
X242062000Y-92202000D03*
%TD*%
%TO.C,X33*%
X242062000Y-102362000D03*
%TD*%
%TO.C,X34*%
X229616000Y-84328000D03*
%TD*%
%TO.C,X35*%
X229616000Y-86868000D03*
%TD*%
%TO.C,X36*%
X229616000Y-97282000D03*
%TD*%
%TO.C,X37*%
X229616000Y-91948000D03*
%TD*%
%TO.C,X38*%
X209550000Y-84328000D03*
%TD*%
%TO.C,X39*%
X242062000Y-99822000D03*
%TD*%
%TO.C,X40*%
X259080000Y-99822000D03*
%TD*%
%TO.C,X41*%
X229616000Y-94742000D03*
%TD*%
%TO.C,X42*%
X242062000Y-94742000D03*
%TD*%
%TO.C,X43*%
X259080000Y-94742000D03*
%TD*%
%TO.C,X44*%
X109728000Y-62992000D03*
%TD*%
%TO.C,X45*%
X112268000Y-62992000D03*
%TD*%
%TO.C,X46*%
X117348000Y-62992000D03*
%TD*%
%TO.C,X47*%
X125222000Y-65024000D03*
%TD*%
%TO.C,X49*%
X114808000Y-62992000D03*
%TD*%
%TO.C,X50*%
X104648000Y-62992000D03*
%TD*%
%TO.C,X51*%
X209550000Y-94488000D03*
%TD*%
%TO.C,X52*%
X209550000Y-97028000D03*
%TD*%
%TO.C,X53*%
X209550000Y-91948000D03*
%TD*%
%TO.C,X54*%
X196088000Y-97282000D03*
%TD*%
%TO.C,X55*%
X196088000Y-94742000D03*
%TD*%
%TO.C,X56*%
X177038000Y-94742000D03*
%TD*%
%TO.C,X57*%
X231140000Y-155194000D03*
%TD*%
%TO.C,X59*%
X231140000Y-150114000D03*
%TD*%
%TO.C,X60*%
X231140000Y-152654000D03*
%TD*%
%TO.C,X61*%
X253492000Y-150114000D03*
%TD*%
%TO.C,X62*%
X177038000Y-97282000D03*
%TD*%
%TO.C,X63*%
X177038000Y-92202000D03*
%TD*%
%TO.C,X64*%
X196088000Y-92202000D03*
%TD*%
%TO.C,X67*%
X253492000Y-152654000D03*
%TD*%
%TO.C,X68*%
X209550000Y-89408000D03*
%TD*%
%TO.C,X69*%
X209550000Y-102108000D03*
%TD*%
%TO.C,X70*%
X196088000Y-99822000D03*
%TD*%
%TO.C,X71*%
X196088000Y-89662000D03*
%TD*%
%TO.C,X72*%
X196088000Y-102362000D03*
%TD*%
%TO.C,X73*%
X177038000Y-99822000D03*
%TD*%
%TO.C,X74*%
X177038000Y-89662000D03*
%TD*%
%TO.C,X75*%
X177038000Y-102362000D03*
%TD*%
%TO.C,X76*%
X253492000Y-157734000D03*
%TD*%
%TO.C,X77*%
X253492000Y-147574000D03*
%TD*%
%TO.C,X78*%
X253492000Y-160274000D03*
%TD*%
%TO.C,X79*%
X231140000Y-157734000D03*
%TD*%
%TO.C,X80*%
X253492000Y-155194000D03*
%TD*%
%TO.C,X81*%
X231140000Y-147574000D03*
%TD*%
%TO.C,X82*%
X231140000Y-160274000D03*
%TD*%
M02*
