%TF.GenerationSoftware,KiCad,Pcbnew,(5.1.10)-1*%
%TF.CreationDate,2021-08-22T18:56:45-04:00*%
%TF.ProjectId,EngineeringSupportPlatform,456e6769-6e65-4657-9269-6e6753757070,rev?*%
%TF.SameCoordinates,Original*%
%TF.FileFunction,Profile,NP*%
%FSLAX46Y46*%
G04 Gerber Fmt 4.6, Leading zero omitted, Abs format (unit mm)*
G04 Created by KiCad (PCBNEW (5.1.10)-1) date 2021-08-22 18:56:45*
%MOMM*%
%LPD*%
G01*
G04 APERTURE LIST*
%TA.AperFunction,Profile*%
%ADD10C,0.508000*%
%TD*%
G04 APERTURE END LIST*
D10*
X330200000Y-193040000D02*
X330200000Y-55880000D01*
X82550000Y-193040000D02*
X330200000Y-193040000D01*
X82550000Y-55880000D02*
X82550000Y-193040000D01*
X330200000Y-55880000D02*
X82550000Y-55880000D01*
M02*
